Wed Jan 30 17:26:48 CET 2019
Preloading tcmalloc_minimal.so
Py:Athena            INFO including file "AthenaCommon/Preparation.py"
Py:Athena            INFO using release [WorkDir-22.0.1] [x86_64-slc6-gcc62-opt] [atlas-work3/e57bc3132b] -- built on [2019-01-30T1532]
Py:Athena            INFO including file "AthenaCommon/Atlas.UnixStandardJob.py"
Py:Athena            INFO executing ROOT6Setup
Py:Athena            INFO configuring AthenaHive with [1] concurrent threads and [1] concurrent events
Py:AlgScheduler      INFO setting up AvalancheSchedulerSvc/AvalancheSchedulerSvc with 1 threads
Py:Athena            INFO including file "AthenaCommon/Execution.py"
Py:Athena            INFO including file "AthExHelloWorld/HelloWorldOptions.py"
Py:Athena            INFO including file "AthenaCommon/runbatch.py"
Py:ConfigurableDb    INFO Read module info for 5457 configurables from 40 genConfDb files
Py:ConfigurableDb    INFO No duplicates have been found: that's good !
[?1034hApplicationMgr       INFO Updating Gaudi::PluginService::SetDebug(level) to level= 'PluginDebugLevel':0
ApplicationMgr       INFO Updating Gaudi::PluginService::SetDebug(level) to level= 'PluginDebugLevel':0
MessageSvc           INFO Activating in a separate thread
ApplicationMgr    SUCCESS 
====================================================================================================================================
                                                   Welcome to ApplicationMgr (GaudiCoreSvc v30r5)
                                          running on lxplus104.cern.ch on Wed Jan 30 17:27:04 2019
====================================================================================================================================
ApplicationMgr       INFO Successfully loaded modules : AthenaServices
ApplicationMgr       INFO Application Manager Configured successfully
ApplicationMgr                                     INFO Updating Gaudi::PluginService::SetDebug(level) to level= 'PluginDebugLevel':0
AthDictLoaderSvc                                   INFO in initialize...
AthDictLoaderSvc                                   INFO acquired Dso-registry
ClassIDSvc                                         INFO  getRegistryEntries: read 3685 CLIDRegistry entries for module ALL
CoreDumpSvc                                        INFO install f-a-t-a-l handler... (flag = -1)
CoreDumpSvc                                        INFO Handling signals: 11(Segmentation fault) 7(Bus error) 4(Illegal instruction) 8(Floating point exception) 
AthenaHiveEventLoopMgr                             INFO Initializing AthenaHiveEventLoopMgr - package version AthenaServices-00-00-00
HelloWorld                                  0      INFO initialize()
HelloWorld                                  0      INFO   MyInt =    42
HelloWorld                                  0      INFO   MyBool =   1
HelloWorld                                  0      INFO   MyDouble = 3.14159
HelloWorld                                  0      INFO   MyStringVec[0] = Welcome
HelloWorld                                  0      INFO   MyStringVec[1] = to
HelloWorld                                  0      INFO   MyStringVec[2] = Athena
HelloWorld                                  0      INFO   MyStringVec[3] = Framework
HelloWorld                                  0      INFO   MyStringVec[4] = Tutorial
HelloWorld                                  0      INFO   MyStringVec[5] = !
HelloWorld                                  0      INFO   MyDict['Bonjour'] = 'Guten Tag'
HelloWorld                                  0      INFO   MyDict['Goeiedag'] = 'Ni Hao'
HelloWorld                                  0      INFO   MyDict['Good Morning'] = 'Bonjour'
HelloWorld                                  0      INFO   MyDict['one'] = 'ein'
HelloWorld                                  0      INFO   MyDict['three'] = 'trois'
HelloWorld                                  0      INFO   MyDict['two'] = 'dos'
HelloWorld                                  0      INFO   MyTable['1'] = '1'
HelloWorld                                  0      INFO   MyTable['2'] = '4'
HelloWorld                                  0      INFO   MyTable['3'] = '9'
HelloWorld                                  0      INFO   MyTable['4'] = '16'
HelloWorld                                  0      INFO   MyMatrix[0] = [ 1 2 3 ]
HelloWorld                                  0      INFO   MyMatrix[1] = [ 4 5 6 ]
HelloWorld                                  0      INFO   MyMatrix[2] = [ 7 8 9 ]
HelloWorld                                  0      INFO   MyPrivateHelloTool = HelloTool
HelloWorld                                  0      INFO   MyPublicHelloTool = HelloTool
HelloWorld                                  0      INFO MyPrivateHelloTool: Retrieved tool HelloTool
HelloWorld                                  0      INFO MyPublicHelloTool: Retrieved tool HelloTool
ThreadPoolSvc                               0      INFO no thread init tools attached
AvalancheSchedulerSvc                       0      INFO Activating scheduler in a separate thread
AvalancheSchedulerSvc                       0      INFO Found 6 algorithms
AvalancheSchedulerSvc                       0      INFO No unmet INPUT data dependencies were found
PrecedenceSvc                               0      INFO Assembling CF and DF task precedence rules
PrecedenceSvc                               0      INFO PrecedenceSvc initialized successfully
AvalancheSchedulerSvc                       0      INFO Concurrency level information:
AvalancheSchedulerSvc                       0      INFO  o Number of events in flight: 1
AvalancheSchedulerSvc                       0      INFO  o TBB thread pool size:  'ThreadPoolSize':1
HistogramPersistencySvc                     0   WARNING Histograms saving not required.
EventSelector                               0      INFO  Enter McEventSelector Initialization 
AthenaHiveEventLoopMgr                      0      INFO Setup EventSelector service EventSelector
ApplicationMgr                              0      INFO Application Manager Initialized successfully
HelloWorld                                  0      INFO start()
ApplicationMgr                              0      INFO Application Manager Started successfully
AthenaHiveEventLoopMgr                      0      INFO Starting loop on events
EventPersistencySvc                     0   0      INFO Added successfully Conversion service:McCnvSvc
AthenaHiveEventLoopMgr                  0   0      INFO   ===>>>  start of run 0    <<<===
AthenaHiveEventLoopMgr                  0   0      INFO   ===>>>  start processing event #0, run #0 on slot 0,  0 events processed so far  <<<===
HelloWorld                              0   0      INFO execute()
HelloWorld                              0   0      INFO An INFO message
HelloWorld                              0   0   WARNING A WARNING message
HelloWorld                              0   0     ERROR An ERROR message
HelloWorld                              0   0     FATAL A FATAL error message
HelloWorld                              0   0      INFO Let the tool MyPublicHelloTool say something:
ToolSvc.PublicHello                     0   0      INFO my message to the world: A Public Message!
HelloWorld                              0   0      INFO Let the tool MyPrivateHelloTool say something:
HelloWorld.HelloTool                    0   0      INFO my message to the world: A Private Message!
AthenaHiveEventLoopMgr                             INFO   ===>>>  done processing event #0, run #0 on slot 0,  1 events processed so far  <<<===
AthenaHiveEventLoopMgr                  1   0      INFO   ===>>>  start processing event #1, run #0 on slot 0,  1 events processed so far  <<<===
HelloWorld                              1   0      INFO execute()
HelloWorld                              1   0      INFO An INFO message
HelloWorld                              1   0   WARNING A WARNING message
HelloWorld                              1   0     ERROR An ERROR message
HelloWorld                              1   0     FATAL A FATAL error message
HelloWorld                              1   0      INFO Let the tool MyPublicHelloTool say something:
ToolSvc.PublicHello                     1   0      INFO my message to the world: A Public Message!
HelloWorld                              1   0      INFO Let the tool MyPrivateHelloTool say something:
HelloWorld.HelloTool                    1   0      INFO my message to the world: A Private Message!
AthenaHiveEventLoopMgr                             INFO   ===>>>  done processing event #1, run #0 on slot 0,  2 events processed so far  <<<===
AthenaHiveEventLoopMgr                  2   0      INFO   ===>>>  start processing event #2, run #0 on slot 0,  2 events processed so far  <<<===
HelloWorld                              2   0      INFO execute()
HelloWorld                              2   0      INFO An INFO message
HelloWorld                              2   0   WARNING A WARNING message
HelloWorld                              2   0     ERROR An ERROR message
HelloWorld                              2   0     FATAL A FATAL error message
HelloWorld                              2   0      INFO Let the tool MyPublicHelloTool say something:
ToolSvc.PublicHello                     2   0      INFO my message to the world: A Public Message!
HelloWorld                              2   0      INFO Let the tool MyPrivateHelloTool say something:
HelloWorld.HelloTool                    2   0      INFO my message to the world: A Private Message!
AthenaHiveEventLoopMgr                             INFO   ===>>>  done processing event #2, run #0 on slot 0,  3 events processed so far  <<<===
AthenaHiveEventLoopMgr                  3   0      INFO   ===>>>  start processing event #3, run #0 on slot 0,  3 events processed so far  <<<===
HelloWorld                              3   0      INFO execute()
HelloWorld                              3   0      INFO An INFO message
HelloWorld                              3   0   WARNING A WARNING message
HelloWorld                              3   0     ERROR An ERROR message
HelloWorld                              3   0     FATAL A FATAL error message
HelloWorld                              3   0      INFO Let the tool MyPublicHelloTool say something:
ToolSvc.PublicHello                     3   0      INFO my message to the world: A Public Message!
HelloWorld                              3   0      INFO Let the tool MyPrivateHelloTool say something:
HelloWorld.HelloTool                    3   0      INFO my message to the world: A Private Message!
AthenaHiveEventLoopMgr                             INFO   ===>>>  done processing event #3, run #0 on slot 0,  4 events processed so far  <<<===
AthenaHiveEventLoopMgr                  4   0      INFO   ===>>>  start processing event #4, run #0 on slot 0,  4 events processed so far  <<<===
HelloWorld                              4   0      INFO execute()
HelloWorld                              4   0      INFO An INFO message
HelloWorld                              4   0   WARNING A WARNING message
HelloWorld                              4   0     ERROR An ERROR message
HelloWorld                              4   0     FATAL A FATAL error message
HelloWorld                              4   0      INFO Let the tool MyPublicHelloTool say something:
ToolSvc.PublicHello                     4   0      INFO my message to the world: A Public Message!
HelloWorld                              4   0      INFO Let the tool MyPrivateHelloTool say something:
HelloWorld.HelloTool                    4   0      INFO my message to the world: A Private Message!
AthenaHiveEventLoopMgr                             INFO   ===>>>  done processing event #4, run #0 on slot 0,  5 events processed so far  <<<===
AthenaHiveEventLoopMgr                  5   0      INFO   ===>>>  start processing event #5, run #0 on slot 0,  5 events processed so far  <<<===
HelloWorld                              5   0      INFO execute()
HelloWorld                              5   0      INFO An INFO message
HelloWorld                              5   0   WARNING A WARNING message
HelloWorld                              5   0     ERROR An ERROR message
HelloWorld                              5   0     FATAL A FATAL error message
HelloWorld                              5   0      INFO Let the tool MyPublicHelloTool say something:
ToolSvc.PublicHello                     5   0      INFO my message to the world: A Public Message!
HelloWorld                              5   0      INFO Let the tool MyPrivateHelloTool say something:
HelloWorld.HelloTool                    5   0      INFO my message to the world: A Private Message!
AthenaHiveEventLoopMgr                             INFO   ===>>>  done processing event #5, run #0 on slot 0,  6 events processed so far  <<<===
AthenaHiveEventLoopMgr                  6   0      INFO   ===>>>  start processing event #6, run #0 on slot 0,  6 events processed so far  <<<===
HelloWorld                              6   0      INFO execute()
HelloWorld                              6   0      INFO An INFO message
HelloWorld                              6   0   WARNING A WARNING message
HelloWorld                              6   0     ERROR An ERROR message
HelloWorld                              6   0     FATAL A FATAL error message
HelloWorld                              6   0      INFO Let the tool MyPublicHelloTool say something:
ToolSvc.PublicHello                     6   0      INFO my message to the world: A Public Message!
HelloWorld                              6   0      INFO Let the tool MyPrivateHelloTool say something:
HelloWorld.HelloTool                    6   0      INFO my message to the world: A Private Message!
AthenaHiveEventLoopMgr                             INFO   ===>>>  done processing event #6, run #0 on slot 0,  7 events processed so far  <<<===
AthenaHiveEventLoopMgr                  7   0      INFO   ===>>>  start processing event #7, run #0 on slot 0,  7 events processed so far  <<<===
HelloWorld                              7   0      INFO execute()
HelloWorld                              7   0      INFO An INFO message
HelloWorld                              7   0   WARNING A WARNING message
HelloWorld                              7   0     ERROR An ERROR message
HelloWorld                              7   0     FATAL A FATAL error message
HelloWorld                              7   0      INFO Let the tool MyPublicHelloTool say something:
ToolSvc.PublicHello                     7   0      INFO my message to the world: A Public Message!
HelloWorld                              7   0      INFO Let the tool MyPrivateHelloTool say something:
HelloWorld.HelloTool                    7   0      INFO my message to the world: A Private Message!
AthenaHiveEventLoopMgr                             INFO   ===>>>  done processing event #7, run #0 on slot 0,  8 events processed so far  <<<===
AthenaHiveEventLoopMgr                  8   0      INFO   ===>>>  start processing event #8, run #0 on slot 0,  8 events processed so far  <<<===
HelloWorld                              8   0      INFO execute()
HelloWorld                              8   0      INFO An INFO message
HelloWorld                              8   0   WARNING A WARNING message
HelloWorld                              8   0     ERROR An ERROR message
HelloWorld                              8   0     FATAL A FATAL error message
HelloWorld                              8   0      INFO Let the tool MyPublicHelloTool say something:
ToolSvc.PublicHello                     8   0      INFO my message to the world: A Public Message!
HelloWorld                              8   0      INFO Let the tool MyPrivateHelloTool say something:
HelloWorld.HelloTool                    8   0      INFO my message to the world: A Private Message!
AthenaHiveEventLoopMgr                             INFO   ===>>>  done processing event #8, run #0 on slot 0,  9 events processed so far  <<<===
AthenaHiveEventLoopMgr                  9   0      INFO   ===>>>  start processing event #9, run #0 on slot 0,  9 events processed so far  <<<===
HelloWorld                              9   0      INFO execute()
HelloWorld                              9   0      INFO An INFO message
HelloWorld                              9   0   WARNING A WARNING message
HelloWorld                              9   0     ERROR An ERROR message
HelloWorld                              9   0     FATAL A FATAL error message
HelloWorld                              9   0      INFO Let the tool MyPublicHelloTool say something:
ToolSvc.PublicHello                     9   0      INFO my message to the world: A Public Message!
HelloWorld                              9   0      INFO Let the tool MyPrivateHelloTool say something:
HelloWorld.HelloTool                    9   0      INFO my message to the world: A Private Message!
AthenaHiveEventLoopMgr                             INFO   ===>>>  done processing event #9, run #0 on slot 0,  10 events processed so far  <<<===
AthenaHiveEventLoopMgr                             INFO ---> Loop Finished (seconds): 0.373509
HelloWorld                              9   0      INFO stop()
ApplicationMgr                                     INFO Application Manager Stopped successfully
IncidentProcAlg1                                   INFO Finalize
SGInputLoader                                      INFO Finalizing SGInputLoader...
HelloWorld                                         INFO finalize()
IncidentProcAlg2                                   INFO Finalize
EventSelector                                      INFO finalize
AvalancheSchedulerSvc                              INFO Joining Scheduler thread
EventDataSvc                                       INFO Finalizing EventDataSvc - package version StoreGate-00-00-00
AthDictLoaderSvc                                   INFO in finalize...
ToolSvc                                            INFO Removing all tools created by ToolSvc
*****Chrono*****                                   INFO ****************************************************************************************************
*****Chrono*****                                   INFO  The Final CPU consumption ( Chrono ) Table (ordered)
*****Chrono*****                                   INFO ****************************************************************************************************
ChronoStatSvc                                      INFO Time User   : Tot=  130 [ms]                                             #=  1
*****Chrono*****                                   INFO ****************************************************************************************************
ChronoStatSvc.finalize()                           INFO  Service finalized successfully 
ApplicationMgr                                     INFO Application Manager Finalized successfully
ApplicationMgr                                     INFO Application Manager Terminated successfully
Py:Athena            INFO leaving with code 0: "successful run"
