/DAQdummy/EBA/DAQdummy	EBAXX	0	ATLTILSCS:DAQEBA.state
/DAQdummy/EBC/DAQdummy	EBCXX	3	ATLTILSCS:DAQEBC.state
/DAQdummy/LBA/DAQdummy	LBAXX	1	ATLTILSCS:DAQLBA.state
/DAQdummy/LBC/DAQdummy	LBCXX	2	ATLTILSCS:DAQLBC.state
/TILE/DCS/AI	EBA01	55461086	ATLTILLV00:ELMB/LVCAN4/LVPS_1/AI
/TILE/DCS/AI	EBA02	55537086	ATLTILLV00:ELMB/LVCAN4/LVPS_2/AI
/TILE/DCS/AI	EBA03	55613086	ATLTILLV00:ELMB/LVCAN4/LVPS_3/AI
/TILE/DCS/AI	EBA04	55689086	ATLTILLV00:ELMB/LVCAN4/LVPS_4/AI
/TILE/DCS/AI	EBA05	55765086	ATLTILLV00:ELMB/LVCAN4/LVPS_5/AI
/TILE/DCS/AI	EBA06	55841086	ATLTILLV00:ELMB/LVCAN4/LVPS_6/AI
/TILE/DCS/AI	EBA07	55917086	ATLTILLV00:ELMB/LVCAN4/LVPS_7/AI
/TILE/DCS/AI	EBA08	55993086	ATLTILLV00:ELMB/LVCAN4/LVPS_8/AI
/TILE/DCS/AI	EBA09	56753086	ATLTILLV00:ELMB/LVCAN1/LVPS_9/AI
/TILE/DCS/AI	EBA10	56829086	ATLTILLV00:ELMB/LVCAN1/LVPS_10/AI
/TILE/DCS/AI	EBA11	56905086	ATLTILLV00:ELMB/LVCAN1/LVPS_11/AI
/TILE/DCS/AI	EBA12	56981086	ATLTILLV00:ELMB/LVCAN1/LVPS_12/AI
/TILE/DCS/AI	EBA13	57057086	ATLTILLV00:ELMB/LVCAN1/LVPS_13/AI
/TILE/DCS/AI	EBA14	57133086	ATLTILLV00:ELMB/LVCAN1/LVPS_14/AI
/TILE/DCS/AI	EBA15	58881086	ATLTILLV00:ELMB/LVCAN1/LVPS_15/AI
/TILE/DCS/AI	EBA16	57209086	ATLTILLV00:ELMB/LVCAN1/LVPS_16/AI
/TILE/DCS/AI	EBA17	57285086	ATLTILLV00:ELMB/LVCAN1/LVPS_17/AI
/TILE/DCS/AI	EBA18	57361086	ATLTILLV00:ELMB/LVCAN1/LVPS_18/AI
/TILE/DCS/AI	EBA19	57437086	ATLTILLV00:ELMB/LVCAN1/LVPS_19/AI
/TILE/DCS/AI	EBA20	58957086	ATLTILLV00:ELMB/LVCAN1/LVPS_20/AI
/TILE/DCS/AI	EBA21	57513086	ATLTILLV00:ELMB/LVCAN1/LVPS_21/AI
/TILE/DCS/AI	EBA22	57589086	ATLTILLV00:ELMB/LVCAN1/LVPS_22/AI
/TILE/DCS/AI	EBA23	57665086	ATLTILLV00:ELMB/LVCAN1/LVPS_23/AI
/TILE/DCS/AI	EBA24	57741086	ATLTILLV00:ELMB/LVCAN1/LVPS_24/AI
/TILE/DCS/AI	EBA25	56677086	ATLTILLV00:ELMB/LVCAN2/LVPS_25/AI
/TILE/DCS/AI	EBA26	57817086	ATLTILLV00:ELMB/LVCAN2/LVPS_26/AI
/TILE/DCS/AI	EBA27	53621086	ATLTILLV00:ELMB/LVCAN2/LVPS_27/AI
/TILE/DCS/AI	EBA28	57893086	ATLTILLV00:ELMB/LVCAN2/LVPS_28/AI
/TILE/DCS/AI	EBA29	57969086	ATLTILLV00:ELMB/LVCAN2/LVPS_29/AI
/TILE/DCS/AI	EBA30	58045086	ATLTILLV00:ELMB/LVCAN2/LVPS_30/AI
/TILE/DCS/AI	EBA31	58121086	ATLTILLV00:ELMB/LVCAN2/LVPS_31/AI
/TILE/DCS/AI	EBA32	58197086	ATLTILLV00:ELMB/LVCAN2/LVPS_32/AI
/TILE/DCS/AI	EBA33	58273086	ATLTILLV00:ELMB/LVCAN2/LVPS_33/AI
/TILE/DCS/AI	EBA34	58349086	ATLTILLV00:ELMB/LVCAN2/LVPS_34/AI
/TILE/DCS/AI	EBA35	58425086	ATLTILLV00:ELMB/LVCAN2/LVPS_35/AI
/TILE/DCS/AI	EBA36	58501086	ATLTILLV00:ELMB/LVCAN2/LVPS_36/AI
/TILE/DCS/AI	EBA37	58577086	ATLTILLV00:ELMB/LVCAN2/LVPS_37/AI
/TILE/DCS/AI	EBA38	58653086	ATLTILLV00:ELMB/LVCAN2/LVPS_38/AI
/TILE/DCS/AI	EBA39	58729086	ATLTILLV00:ELMB/LVCAN2/LVPS_39/AI
/TILE/DCS/AI	EBA40	58805086	ATLTILLV00:ELMB/LVCAN2/LVPS_40/AI
/TILE/DCS/AI	EBA41	53399086	ATLTILLV00:ELMB/LVCAN3/LVPS_41/AI
/TILE/DCS/AI	EBA42	53769086	ATLTILLV00:ELMB/LVCAN3/LVPS_42/AI
/TILE/DCS/AI	EBA43	53843086	ATLTILLV00:ELMB/LVCAN3/LVPS_43/AI
/TILE/DCS/AI	EBA44	53917086	ATLTILLV00:ELMB/LVCAN3/LVPS_44/AI
/TILE/DCS/AI	EBA45	53695086	ATLTILLV00:ELMB/LVCAN3/LVPS_45/AI
/TILE/DCS/AI	EBA46	53991086	ATLTILLV00:ELMB/LVCAN3/LVPS_46/AI
/TILE/DCS/AI	EBA47	54065086	ATLTILLV00:ELMB/LVCAN3/LVPS_47/AI
/TILE/DCS/AI	EBA48	54139086	ATLTILLV00:ELMB/LVCAN3/LVPS_48/AI
/TILE/DCS/AI	EBA49	54213086	ATLTILLV00:ELMB/LVCAN3/LVPS_49/AI
/TILE/DCS/AI	EBA50	54287086	ATLTILLV00:ELMB/LVCAN3/LVPS_50/AI
/TILE/DCS/AI	EBA51	54361086	ATLTILLV00:ELMB/LVCAN3/LVPS_51/AI
/TILE/DCS/AI	EBA52	54435086	ATLTILLV00:ELMB/LVCAN3/LVPS_52/AI
/TILE/DCS/AI	EBA53	54509086	ATLTILLV00:ELMB/LVCAN3/LVPS_53/AI
/TILE/DCS/AI	EBA54	54583086	ATLTILLV00:ELMB/LVCAN3/LVPS_54/AI
/TILE/DCS/AI	EBA55	54657086	ATLTILLV00:ELMB/LVCAN3/LVPS_55/AI
/TILE/DCS/AI	EBA56	54731086	ATLTILLV00:ELMB/LVCAN3/LVPS_56/AI
/TILE/DCS/AI	EBA57	56069086	ATLTILLV00:ELMB/LVCAN4/LVPS_57/AI
/TILE/DCS/AI	EBA58	56145086	ATLTILLV00:ELMB/LVCAN4/LVPS_58/AI
/TILE/DCS/AI	EBA59	56221086	ATLTILLV00:ELMB/LVCAN4/LVPS_59/AI
/TILE/DCS/AI	EBA60	56297086	ATLTILLV00:ELMB/LVCAN4/LVPS_60/AI
/TILE/DCS/AI	EBA61	56373086	ATLTILLV00:ELMB/LVCAN4/LVPS_61/AI
/TILE/DCS/AI	EBA62	56449086	ATLTILLV00:ELMB/LVCAN4/LVPS_62/AI
/TILE/DCS/AI	EBA63	56525086	ATLTILLV00:ELMB/LVCAN4/LVPS_63/AI
/TILE/DCS/AI	EBA64	56601086	ATLTILLV00:ELMB/LVCAN4/LVPS_64/AI
/TILE/DCS/AI	EBC01	55461089	ATLTILLV03:ELMB/LVCAN4/LVPS_1/AI
/TILE/DCS/AI	EBC02	55537089	ATLTILLV03:ELMB/LVCAN4/LVPS_2/AI
/TILE/DCS/AI	EBC03	55613089	ATLTILLV03:ELMB/LVCAN4/LVPS_3/AI
/TILE/DCS/AI	EBC04	55689089	ATLTILLV03:ELMB/LVCAN4/LVPS_4/AI
/TILE/DCS/AI	EBC05	55765089	ATLTILLV03:ELMB/LVCAN4/LVPS_5/AI
/TILE/DCS/AI	EBC06	55841089	ATLTILLV03:ELMB/LVCAN4/LVPS_6/AI
/TILE/DCS/AI	EBC07	55917089	ATLTILLV03:ELMB/LVCAN4/LVPS_7/AI
/TILE/DCS/AI	EBC08	55993089	ATLTILLV03:ELMB/LVCAN4/LVPS_8/AI
/TILE/DCS/AI	EBC09	56753089	ATLTILLV03:ELMB/LVCAN1/LVPS_9/AI
/TILE/DCS/AI	EBC10	56829089	ATLTILLV03:ELMB/LVCAN1/LVPS_10/AI
/TILE/DCS/AI	EBC11	56905089	ATLTILLV03:ELMB/LVCAN1/LVPS_11/AI
/TILE/DCS/AI	EBC12	56981089	ATLTILLV03:ELMB/LVCAN1/LVPS_12/AI
/TILE/DCS/AI	EBC13	57057089	ATLTILLV03:ELMB/LVCAN1/LVPS_13/AI
/TILE/DCS/AI	EBC14	57133089	ATLTILLV03:ELMB/LVCAN1/LVPS_14/AI
/TILE/DCS/AI	EBC15	58881089	ATLTILLV03:ELMB/LVCAN1/LVPS_15/AI
/TILE/DCS/AI	EBC16	57209089	ATLTILLV03:ELMB/LVCAN1/LVPS_16/AI
/TILE/DCS/AI	EBC17	57285089	ATLTILLV03:ELMB/LVCAN1/LVPS_17/AI
/TILE/DCS/AI	EBC18	57361089	ATLTILLV03:ELMB/LVCAN1/LVPS_18/AI
/TILE/DCS/AI	EBC19	57437089	ATLTILLV03:ELMB/LVCAN1/LVPS_19/AI
/TILE/DCS/AI	EBC20	58957089	ATLTILLV03:ELMB/LVCAN1/LVPS_20/AI
/TILE/DCS/AI	EBC21	57513089	ATLTILLV03:ELMB/LVCAN1/LVPS_21/AI
/TILE/DCS/AI	EBC22	57589089	ATLTILLV03:ELMB/LVCAN1/LVPS_22/AI
/TILE/DCS/AI	EBC23	57665089	ATLTILLV03:ELMB/LVCAN1/LVPS_23/AI
/TILE/DCS/AI	EBC24	57741089	ATLTILLV03:ELMB/LVCAN1/LVPS_24/AI
/TILE/DCS/AI	EBC25	56677089	ATLTILLV03:ELMB/LVCAN2/LVPS_25/AI
/TILE/DCS/AI	EBC26	57817089	ATLTILLV03:ELMB/LVCAN2/LVPS_26/AI
/TILE/DCS/AI	EBC27	53621089	ATLTILLV03:ELMB/LVCAN2/LVPS_27/AI
/TILE/DCS/AI	EBC28	57893089	ATLTILLV03:ELMB/LVCAN2/LVPS_28/AI
/TILE/DCS/AI	EBC29	57969089	ATLTILLV03:ELMB/LVCAN2/LVPS_29/AI
/TILE/DCS/AI	EBC30	58045089	ATLTILLV03:ELMB/LVCAN2/LVPS_30/AI
/TILE/DCS/AI	EBC31	58121089	ATLTILLV03:ELMB/LVCAN2/LVPS_31/AI
/TILE/DCS/AI	EBC32	58197089	ATLTILLV03:ELMB/LVCAN2/LVPS_32/AI
/TILE/DCS/AI	EBC33	58273089	ATLTILLV03:ELMB/LVCAN2/LVPS_33/AI
/TILE/DCS/AI	EBC34	58349089	ATLTILLV03:ELMB/LVCAN2/LVPS_34/AI
/TILE/DCS/AI	EBC35	58425089	ATLTILLV03:ELMB/LVCAN2/LVPS_35/AI
/TILE/DCS/AI	EBC36	58501089	ATLTILLV03:ELMB/LVCAN2/LVPS_36/AI
/TILE/DCS/AI	EBC37	58577089	ATLTILLV03:ELMB/LVCAN2/LVPS_37/AI
/TILE/DCS/AI	EBC38	58653089	ATLTILLV03:ELMB/LVCAN2/LVPS_38/AI
/TILE/DCS/AI	EBC39	58729089	ATLTILLV03:ELMB/LVCAN2/LVPS_39/AI
/TILE/DCS/AI	EBC40	58805089	ATLTILLV03:ELMB/LVCAN2/LVPS_40/AI
/TILE/DCS/AI	EBC41	53399089	ATLTILLV03:ELMB/LVCAN3/LVPS_41/AI
/TILE/DCS/AI	EBC42	53769089	ATLTILLV03:ELMB/LVCAN3/LVPS_42/AI
/TILE/DCS/AI	EBC43	53843089	ATLTILLV03:ELMB/LVCAN3/LVPS_43/AI
/TILE/DCS/AI	EBC44	53917089	ATLTILLV03:ELMB/LVCAN3/LVPS_44/AI
/TILE/DCS/AI	EBC45	53695089	ATLTILLV03:ELMB/LVCAN3/LVPS_45/AI
/TILE/DCS/AI	EBC46	53991089	ATLTILLV03:ELMB/LVCAN3/LVPS_46/AI
/TILE/DCS/AI	EBC47	54065089	ATLTILLV03:ELMB/LVCAN3/LVPS_47/AI
/TILE/DCS/AI	EBC48	54139089	ATLTILLV03:ELMB/LVCAN3/LVPS_48/AI
/TILE/DCS/AI	EBC49	54213089	ATLTILLV03:ELMB/LVCAN3/LVPS_49/AI
/TILE/DCS/AI	EBC50	54287089	ATLTILLV03:ELMB/LVCAN3/LVPS_50/AI
/TILE/DCS/AI	EBC51	54361089	ATLTILLV03:ELMB/LVCAN3/LVPS_51/AI
/TILE/DCS/AI	EBC52	54435089	ATLTILLV03:ELMB/LVCAN3/LVPS_52/AI
/TILE/DCS/AI	EBC53	54509089	ATLTILLV03:ELMB/LVCAN3/LVPS_53/AI
/TILE/DCS/AI	EBC54	54583089	ATLTILLV03:ELMB/LVCAN3/LVPS_54/AI
/TILE/DCS/AI	EBC55	54657089	ATLTILLV03:ELMB/LVCAN3/LVPS_55/AI
/TILE/DCS/AI	EBC56	54731089	ATLTILLV03:ELMB/LVCAN3/LVPS_56/AI
/TILE/DCS/AI	EBC57	56069089	ATLTILLV03:ELMB/LVCAN4/LVPS_57/AI
/TILE/DCS/AI	EBC58	56145089	ATLTILLV03:ELMB/LVCAN4/LVPS_58/AI
/TILE/DCS/AI	EBC59	56221089	ATLTILLV03:ELMB/LVCAN4/LVPS_59/AI
/TILE/DCS/AI	EBC60	56297089	ATLTILLV03:ELMB/LVCAN4/LVPS_60/AI
/TILE/DCS/AI	EBC61	56373089	ATLTILLV03:ELMB/LVCAN4/LVPS_61/AI
/TILE/DCS/AI	EBC62	56449089	ATLTILLV03:ELMB/LVCAN4/LVPS_62/AI
/TILE/DCS/AI	EBC63	56525089	ATLTILLV03:ELMB/LVCAN4/LVPS_63/AI
/TILE/DCS/AI	EBC64	56601089	ATLTILLV03:ELMB/LVCAN4/LVPS_64/AI
/TILE/DCS/AI	LBA01	55461088	ATLTILLV01:ELMB/LVCAN4/LVPS_1/AI
/TILE/DCS/AI	LBA02	55537088	ATLTILLV01:ELMB/LVCAN4/LVPS_2/AI
/TILE/DCS/AI	LBA03	55613088	ATLTILLV01:ELMB/LVCAN4/LVPS_3/AI
/TILE/DCS/AI	LBA04	55689088	ATLTILLV01:ELMB/LVCAN4/LVPS_4/AI
/TILE/DCS/AI	LBA05	55765088	ATLTILLV01:ELMB/LVCAN4/LVPS_5/AI
/TILE/DCS/AI	LBA06	55841088	ATLTILLV01:ELMB/LVCAN4/LVPS_6/AI
/TILE/DCS/AI	LBA07	55917088	ATLTILLV01:ELMB/LVCAN4/LVPS_7/AI
/TILE/DCS/AI	LBA08	55993088	ATLTILLV01:ELMB/LVCAN4/LVPS_8/AI
/TILE/DCS/AI	LBA09	56753088	ATLTILLV01:ELMB/LVCAN1/LVPS_9/AI
/TILE/DCS/AI	LBA10	56829088	ATLTILLV01:ELMB/LVCAN1/LVPS_10/AI
/TILE/DCS/AI	LBA11	56905088	ATLTILLV01:ELMB/LVCAN1/LVPS_11/AI
/TILE/DCS/AI	LBA12	56981088	ATLTILLV01:ELMB/LVCAN1/LVPS_12/AI
/TILE/DCS/AI	LBA13	57057088	ATLTILLV01:ELMB/LVCAN1/LVPS_13/AI
/TILE/DCS/AI	LBA14	57133088	ATLTILLV01:ELMB/LVCAN1/LVPS_14/AI
/TILE/DCS/AI	LBA15	58881088	ATLTILLV01:ELMB/LVCAN1/LVPS_15/AI
/TILE/DCS/AI	LBA16	57209088	ATLTILLV01:ELMB/LVCAN1/LVPS_16/AI
/TILE/DCS/AI	LBA17	57285088	ATLTILLV01:ELMB/LVCAN1/LVPS_17/AI
/TILE/DCS/AI	LBA18	57361088	ATLTILLV01:ELMB/LVCAN1/LVPS_18/AI
/TILE/DCS/AI	LBA19	57437088	ATLTILLV01:ELMB/LVCAN1/LVPS_19/AI
/TILE/DCS/AI	LBA20	58957088	ATLTILLV01:ELMB/LVCAN1/LVPS_20/AI
/TILE/DCS/AI	LBA21	57513088	ATLTILLV01:ELMB/LVCAN1/LVPS_21/AI
/TILE/DCS/AI	LBA22	57589088	ATLTILLV01:ELMB/LVCAN1/LVPS_22/AI
/TILE/DCS/AI	LBA23	57665088	ATLTILLV01:ELMB/LVCAN1/LVPS_23/AI
/TILE/DCS/AI	LBA24	57741088	ATLTILLV01:ELMB/LVCAN1/LVPS_24/AI
/TILE/DCS/AI	LBA25	56677088	ATLTILLV01:ELMB/LVCAN2/LVPS_25/AI
/TILE/DCS/AI	LBA26	57817088	ATLTILLV01:ELMB/LVCAN2/LVPS_26/AI
/TILE/DCS/AI	LBA27	53621088	ATLTILLV01:ELMB/LVCAN2/LVPS_27/AI
/TILE/DCS/AI	LBA28	57893088	ATLTILLV01:ELMB/LVCAN2/LVPS_28/AI
/TILE/DCS/AI	LBA29	57969088	ATLTILLV01:ELMB/LVCAN2/LVPS_29/AI
/TILE/DCS/AI	LBA30	58045088	ATLTILLV01:ELMB/LVCAN2/LVPS_30/AI
/TILE/DCS/AI	LBA31	58121088	ATLTILLV01:ELMB/LVCAN2/LVPS_31/AI
/TILE/DCS/AI	LBA32	58197088	ATLTILLV01:ELMB/LVCAN2/LVPS_32/AI
/TILE/DCS/AI	LBA33	58273088	ATLTILLV01:ELMB/LVCAN2/LVPS_33/AI
/TILE/DCS/AI	LBA34	58349088	ATLTILLV01:ELMB/LVCAN2/LVPS_34/AI
/TILE/DCS/AI	LBA35	58425088	ATLTILLV01:ELMB/LVCAN2/LVPS_35/AI
/TILE/DCS/AI	LBA36	58501088	ATLTILLV01:ELMB/LVCAN2/LVPS_36/AI
/TILE/DCS/AI	LBA37	58577088	ATLTILLV01:ELMB/LVCAN2/LVPS_37/AI
/TILE/DCS/AI	LBA38	58653088	ATLTILLV01:ELMB/LVCAN2/LVPS_38/AI
/TILE/DCS/AI	LBA39	58729088	ATLTILLV01:ELMB/LVCAN2/LVPS_39/AI
/TILE/DCS/AI	LBA40	58805088	ATLTILLV01:ELMB/LVCAN2/LVPS_40/AI
/TILE/DCS/AI	LBA41	53399088	ATLTILLV01:ELMB/LVCAN3/LVPS_41/AI
/TILE/DCS/AI	LBA42	53769088	ATLTILLV01:ELMB/LVCAN3/LVPS_42/AI
/TILE/DCS/AI	LBA43	53843088	ATLTILLV01:ELMB/LVCAN3/LVPS_43/AI
/TILE/DCS/AI	LBA44	53917088	ATLTILLV01:ELMB/LVCAN3/LVPS_44/AI
/TILE/DCS/AI	LBA45	53695088	ATLTILLV01:ELMB/LVCAN3/LVPS_45/AI
/TILE/DCS/AI	LBA46	53991088	ATLTILLV01:ELMB/LVCAN3/LVPS_46/AI
/TILE/DCS/AI	LBA47	54065088	ATLTILLV01:ELMB/LVCAN3/LVPS_47/AI
/TILE/DCS/AI	LBA48	54139088	ATLTILLV01:ELMB/LVCAN3/LVPS_48/AI
/TILE/DCS/AI	LBA49	54213088	ATLTILLV01:ELMB/LVCAN3/LVPS_49/AI
/TILE/DCS/AI	LBA50	54287088	ATLTILLV01:ELMB/LVCAN3/LVPS_50/AI
/TILE/DCS/AI	LBA51	54361088	ATLTILLV01:ELMB/LVCAN3/LVPS_51/AI
/TILE/DCS/AI	LBA52	54435088	ATLTILLV01:ELMB/LVCAN3/LVPS_52/AI
/TILE/DCS/AI	LBA53	54509088	ATLTILLV01:ELMB/LVCAN3/LVPS_53/AI
/TILE/DCS/AI	LBA54	54583088	ATLTILLV01:ELMB/LVCAN3/LVPS_54/AI
/TILE/DCS/AI	LBA55	54657088	ATLTILLV01:ELMB/LVCAN3/LVPS_55/AI
/TILE/DCS/AI	LBA56	54731088	ATLTILLV01:ELMB/LVCAN3/LVPS_56/AI
/TILE/DCS/AI	LBA57	56069088	ATLTILLV01:ELMB/LVCAN4/LVPS_57/AI
/TILE/DCS/AI	LBA58	56145088	ATLTILLV01:ELMB/LVCAN4/LVPS_58/AI
/TILE/DCS/AI	LBA59	56221088	ATLTILLV01:ELMB/LVCAN4/LVPS_59/AI
/TILE/DCS/AI	LBA60	56297088	ATLTILLV01:ELMB/LVCAN4/LVPS_60/AI
/TILE/DCS/AI	LBA61	56373088	ATLTILLV01:ELMB/LVCAN4/LVPS_61/AI
/TILE/DCS/AI	LBA62	56449088	ATLTILLV01:ELMB/LVCAN4/LVPS_62/AI
/TILE/DCS/AI	LBA63	56525088	ATLTILLV01:ELMB/LVCAN4/LVPS_63/AI
/TILE/DCS/AI	LBA64	56601088	ATLTILLV01:ELMB/LVCAN4/LVPS_64/AI
/TILE/DCS/AI	LBC01	55461087	ATLTILLV02:ELMB/LVCAN4/LVPS_1/AI
/TILE/DCS/AI	LBC02	55537087	ATLTILLV02:ELMB/LVCAN4/LVPS_2/AI
/TILE/DCS/AI	LBC03	55613087	ATLTILLV02:ELMB/LVCAN4/LVPS_3/AI
/TILE/DCS/AI	LBC04	55689087	ATLTILLV02:ELMB/LVCAN4/LVPS_4/AI
/TILE/DCS/AI	LBC05	55765087	ATLTILLV02:ELMB/LVCAN4/LVPS_5/AI
/TILE/DCS/AI	LBC06	55841087	ATLTILLV02:ELMB/LVCAN4/LVPS_6/AI
/TILE/DCS/AI	LBC07	55917087	ATLTILLV02:ELMB/LVCAN4/LVPS_7/AI
/TILE/DCS/AI	LBC08	55993087	ATLTILLV02:ELMB/LVCAN4/LVPS_8/AI
/TILE/DCS/AI	LBC09	56753087	ATLTILLV02:ELMB/LVCAN1/LVPS_9/AI
/TILE/DCS/AI	LBC10	56829087	ATLTILLV02:ELMB/LVCAN1/LVPS_10/AI
/TILE/DCS/AI	LBC11	56905087	ATLTILLV02:ELMB/LVCAN1/LVPS_11/AI
/TILE/DCS/AI	LBC12	56981087	ATLTILLV02:ELMB/LVCAN1/LVPS_12/AI
/TILE/DCS/AI	LBC13	57057087	ATLTILLV02:ELMB/LVCAN1/LVPS_13/AI
/TILE/DCS/AI	LBC14	57133087	ATLTILLV02:ELMB/LVCAN1/LVPS_14/AI
/TILE/DCS/AI	LBC15	58881087	ATLTILLV02:ELMB/LVCAN1/LVPS_15/AI
/TILE/DCS/AI	LBC16	57209087	ATLTILLV02:ELMB/LVCAN1/LVPS_16/AI
/TILE/DCS/AI	LBC17	57285087	ATLTILLV02:ELMB/LVCAN1/LVPS_17/AI
/TILE/DCS/AI	LBC18	57361087	ATLTILLV02:ELMB/LVCAN1/LVPS_18/AI
/TILE/DCS/AI	LBC19	57437087	ATLTILLV02:ELMB/LVCAN1/LVPS_19/AI
/TILE/DCS/AI	LBC20	58957087	ATLTILLV02:ELMB/LVCAN1/LVPS_20/AI
/TILE/DCS/AI	LBC21	57513087	ATLTILLV02:ELMB/LVCAN1/LVPS_21/AI
/TILE/DCS/AI	LBC22	57589087	ATLTILLV02:ELMB/LVCAN1/LVPS_22/AI
/TILE/DCS/AI	LBC23	57665087	ATLTILLV02:ELMB/LVCAN1/LVPS_23/AI
/TILE/DCS/AI	LBC24	57741087	ATLTILLV02:ELMB/LVCAN1/LVPS_24/AI
/TILE/DCS/AI	LBC25	56677087	ATLTILLV02:ELMB/LVCAN2/LVPS_25/AI
/TILE/DCS/AI	LBC26	57817087	ATLTILLV02:ELMB/LVCAN2/LVPS_26/AI
/TILE/DCS/AI	LBC27	53621087	ATLTILLV02:ELMB/LVCAN2/LVPS_27/AI
/TILE/DCS/AI	LBC28	57893087	ATLTILLV02:ELMB/LVCAN2/LVPS_28/AI
/TILE/DCS/AI	LBC29	57969087	ATLTILLV02:ELMB/LVCAN2/LVPS_29/AI
/TILE/DCS/AI	LBC30	58045087	ATLTILLV02:ELMB/LVCAN2/LVPS_30/AI
/TILE/DCS/AI	LBC31	58121087	ATLTILLV02:ELMB/LVCAN2/LVPS_31/AI
/TILE/DCS/AI	LBC32	58197087	ATLTILLV02:ELMB/LVCAN2/LVPS_32/AI
/TILE/DCS/AI	LBC33	58273087	ATLTILLV02:ELMB/LVCAN2/LVPS_33/AI
/TILE/DCS/AI	LBC34	58349087	ATLTILLV02:ELMB/LVCAN2/LVPS_34/AI
/TILE/DCS/AI	LBC35	58425087	ATLTILLV02:ELMB/LVCAN2/LVPS_35/AI
/TILE/DCS/AI	LBC36	58501087	ATLTILLV02:ELMB/LVCAN2/LVPS_36/AI
/TILE/DCS/AI	LBC37	58577087	ATLTILLV02:ELMB/LVCAN2/LVPS_37/AI
/TILE/DCS/AI	LBC38	58653087	ATLTILLV02:ELMB/LVCAN2/LVPS_38/AI
/TILE/DCS/AI	LBC39	58729087	ATLTILLV02:ELMB/LVCAN2/LVPS_39/AI
/TILE/DCS/AI	LBC40	58805087	ATLTILLV02:ELMB/LVCAN2/LVPS_40/AI
/TILE/DCS/AI	LBC41	53399087	ATLTILLV02:ELMB/LVCAN3/LVPS_41/AI
/TILE/DCS/AI	LBC42	53769087	ATLTILLV02:ELMB/LVCAN3/LVPS_42/AI
/TILE/DCS/AI	LBC43	53843087	ATLTILLV02:ELMB/LVCAN3/LVPS_43/AI
/TILE/DCS/AI	LBC44	53917087	ATLTILLV02:ELMB/LVCAN3/LVPS_44/AI
/TILE/DCS/AI	LBC45	53695087	ATLTILLV02:ELMB/LVCAN3/LVPS_45/AI
/TILE/DCS/AI	LBC46	53991087	ATLTILLV02:ELMB/LVCAN3/LVPS_46/AI
/TILE/DCS/AI	LBC47	54065087	ATLTILLV02:ELMB/LVCAN3/LVPS_47/AI
/TILE/DCS/AI	LBC48	54139087	ATLTILLV02:ELMB/LVCAN3/LVPS_48/AI
/TILE/DCS/AI	LBC49	54213087	ATLTILLV02:ELMB/LVCAN3/LVPS_49/AI
/TILE/DCS/AI	LBC50	54287087	ATLTILLV02:ELMB/LVCAN3/LVPS_50/AI
/TILE/DCS/AI	LBC51	54361087	ATLTILLV02:ELMB/LVCAN3/LVPS_51/AI
/TILE/DCS/AI	LBC52	54435087	ATLTILLV02:ELMB/LVCAN3/LVPS_52/AI
/TILE/DCS/AI	LBC53	54509087	ATLTILLV02:ELMB/LVCAN3/LVPS_53/AI
/TILE/DCS/AI	LBC54	54583087	ATLTILLV02:ELMB/LVCAN3/LVPS_54/AI
/TILE/DCS/AI	LBC55	54657087	ATLTILLV02:ELMB/LVCAN3/LVPS_55/AI
/TILE/DCS/AI	LBC56	54731087	ATLTILLV02:ELMB/LVCAN3/LVPS_56/AI
/TILE/DCS/AI	LBC57	56069087	ATLTILLV02:ELMB/LVCAN4/LVPS_57/AI
/TILE/DCS/AI	LBC58	56145087	ATLTILLV02:ELMB/LVCAN4/LVPS_58/AI
/TILE/DCS/AI	LBC59	56221087	ATLTILLV02:ELMB/LVCAN4/LVPS_59/AI
/TILE/DCS/AI	LBC60	56297087	ATLTILLV02:ELMB/LVCAN4/LVPS_60/AI
/TILE/DCS/AI	LBC61	56373087	ATLTILLV02:ELMB/LVCAN4/LVPS_61/AI
/TILE/DCS/AI	LBC62	56449087	ATLTILLV02:ELMB/LVCAN4/LVPS_62/AI
/TILE/DCS/AI	LBC63	56525087	ATLTILLV02:ELMB/LVCAN4/LVPS_63/AI
/TILE/DCS/AI	LBC64	56601087	ATLTILLV02:ELMB/LVCAN4/LVPS_64/AI
/TILE/DCS/HV	EBA01	199	ATLTILLV00:Drawer1.Readings.Monitoring
/TILE/DCS/HV	EBA02	9  	ATLTILLV00:Drawer2.Readings.Monitoring
/TILE/DCS/HV	EBA03	202	ATLTILLV00:Drawer3.Readings.Monitoring
/TILE/DCS/HV	EBA04	23 	ATLTILLV00:Drawer4.Readings.Monitoring
/TILE/DCS/HV	EBA05	204	ATLTILLV00:Drawer5.Readings.Monitoring
/TILE/DCS/HV	EBA06	206	ATLTILLV00:Drawer6.Readings.Monitoring
/TILE/DCS/HV	EBA07	41 	ATLTILLV00:Drawer7.Readings.Monitoring
/TILE/DCS/HV	EBA08	42 	ATLTILLV00:Drawer8.Readings.Monitoring
/TILE/DCS/HV	EBA09	43 	ATLTILLV00:Drawer9.Readings.Monitoring
/TILE/DCS/HV	EBA10	1  	ATLTILLV00:Drawer10.Readings.Monitoring
/TILE/DCS/HV	EBA11	238	ATLTILLV00:Drawer11.Readings.Monitoring
/TILE/DCS/HV	EBA12	200	ATLTILLV00:Drawer12.Readings.Monitoring
/TILE/DCS/HV	EBA13	2  	ATLTILLV00:Drawer13.Readings.Monitoring
/TILE/DCS/HV	EBA14	3  	ATLTILLV00:Drawer14.Readings.Monitoring
/TILE/DCS/HV	EBA15	4  	ATLTILLV00:Drawer15.Readings.Monitoring
/TILE/DCS/HV	EBA16	5  	ATLTILLV00:Drawer16.Readings.Monitoring
/TILE/DCS/HV	EBA17	6  	ATLTILLV00:Drawer17.Readings.Monitoring
/TILE/DCS/HV	EBA18	7  	ATLTILLV00:Drawer18.Readings.Monitoring
/TILE/DCS/HV	EBA19	8  	ATLTILLV00:Drawer19.Readings.Monitoring
/TILE/DCS/HV	EBA20	10 	ATLTILLV00:Drawer20.Readings.Monitoring
/TILE/DCS/HV	EBA21	11 	ATLTILLV00:Drawer21.Readings.Monitoring
/TILE/DCS/HV	EBA22	201	ATLTILLV00:Drawer22.Readings.Monitoring
/TILE/DCS/HV	EBA23	239	ATLTILLV00:Drawer23.Readings.Monitoring
/TILE/DCS/HV	EBA24	12 	ATLTILLV00:Drawer24.Readings.Monitoring
/TILE/DCS/HV	EBA25	13 	ATLTILLV00:Drawer25.Readings.Monitoring
/TILE/DCS/HV	EBA26	14 	ATLTILLV00:Drawer26.Readings.Monitoring
/TILE/DCS/HV	EBA27	15 	ATLTILLV00:Drawer27.Readings.Monitoring
/TILE/DCS/HV	EBA28	16 	ATLTILLV00:Drawer28.Readings.Monitoring
/TILE/DCS/HV	EBA29	17 	ATLTILLV00:Drawer29.Readings.Monitoring
/TILE/DCS/HV	EBA30	18 	ATLTILLV00:Drawer30.Readings.Monitoring
/TILE/DCS/HV	EBA31	240	ATLTILLV00:Drawer31.Readings.Monitoring
/TILE/DCS/HV	EBA32	19 	ATLTILLV00:Drawer32.Readings.Monitoring
/TILE/DCS/HV	EBA33	241	ATLTILLV00:Drawer33.Readings.Monitoring
/TILE/DCS/HV	EBA34	242	ATLTILLV00:Drawer34.Readings.Monitoring
/TILE/DCS/HV	EBA35	20 	ATLTILLV00:Drawer35.Readings.Monitoring
/TILE/DCS/HV	EBA36	21 	ATLTILLV00:Drawer36.Readings.Monitoring
/TILE/DCS/HV	EBA37	243	ATLTILLV00:Drawer37.Readings.Monitoring
/TILE/DCS/HV	EBA38	244	ATLTILLV00:Drawer38.Readings.Monitoring
/TILE/DCS/HV	EBA39	22 	ATLTILLV00:Drawer39.Readings.Monitoring
/TILE/DCS/HV	EBA40	24 	ATLTILLV00:Drawer40.Readings.Monitoring
/TILE/DCS/HV	EBA41	25 	ATLTILLV00:Drawer41.Readings.Monitoring
/TILE/DCS/HV	EBA42	26 	ATLTILLV00:Drawer42.Readings.Monitoring
/TILE/DCS/HV	EBA43	203	ATLTILLV00:Drawer43.Readings.Monitoring
/TILE/DCS/HV	EBA44	27 	ATLTILLV00:Drawer44.Readings.Monitoring
/TILE/DCS/HV	EBA45	245	ATLTILLV00:Drawer45.Readings.Monitoring
/TILE/DCS/HV	EBA46	28 	ATLTILLV00:Drawer46.Readings.Monitoring
/TILE/DCS/HV	EBA47	246	ATLTILLV00:Drawer47.Readings.Monitoring
/TILE/DCS/HV	EBA48	29 	ATLTILLV00:Drawer48.Readings.Monitoring
/TILE/DCS/HV	EBA49	30 	ATLTILLV00:Drawer49.Readings.Monitoring
/TILE/DCS/HV	EBA50	31 	ATLTILLV00:Drawer50.Readings.Monitoring
/TILE/DCS/HV	EBA51	32 	ATLTILLV00:Drawer51.Readings.Monitoring
/TILE/DCS/HV	EBA52	247	ATLTILLV00:Drawer52.Readings.Monitoring
/TILE/DCS/HV	EBA53	205	ATLTILLV00:Drawer53.Readings.Monitoring
/TILE/DCS/HV	EBA54	248	ATLTILLV00:Drawer54.Readings.Monitoring
/TILE/DCS/HV	EBA55	33 	ATLTILLV00:Drawer55.Readings.Monitoring
/TILE/DCS/HV	EBA56	34 	ATLTILLV00:Drawer56.Readings.Monitoring
/TILE/DCS/HV	EBA57	35 	ATLTILLV00:Drawer57.Readings.Monitoring
/TILE/DCS/HV	EBA58	36 	ATLTILLV00:Drawer58.Readings.Monitoring
/TILE/DCS/HV	EBA59	249	ATLTILLV00:Drawer59.Readings.Monitoring
/TILE/DCS/HV	EBA60	37 	ATLTILLV00:Drawer60.Readings.Monitoring
/TILE/DCS/HV	EBA61	38 	ATLTILLV00:Drawer61.Readings.Monitoring
/TILE/DCS/HV	EBA62	250	ATLTILLV00:Drawer62.Readings.Monitoring
/TILE/DCS/HV	EBA63	39 	ATLTILLV00:Drawer63.Readings.Monitoring
/TILE/DCS/HV	EBA64	40 	ATLTILLV00:Drawer64.Readings.Monitoring
/TILE/DCS/HV	EBC01	137	ATLTILLV03:Drawer1.Readings.Monitoring
/TILE/DCS/HV	EBC02	148	ATLTILLV03:Drawer2.Readings.Monitoring
/TILE/DCS/HV	EBC03	159	ATLTILLV03:Drawer3.Readings.Monitoring
/TILE/DCS/HV	EBC04	170	ATLTILLV03:Drawer4.Readings.Monitoring
/TILE/DCS/HV	EBC05	180	ATLTILLV03:Drawer5.Readings.Monitoring
/TILE/DCS/HV	EBC06	190	ATLTILLV03:Drawer6.Readings.Monitoring
/TILE/DCS/HV	EBC07	196	ATLTILLV03:Drawer7.Readings.Monitoring
/TILE/DCS/HV	EBC08	197	ATLTILLV03:Drawer8.Readings.Monitoring
/TILE/DCS/HV	EBC09	198	ATLTILLV03:Drawer9.Readings.Monitoring
/TILE/DCS/HV	EBC10	138	ATLTILLV03:Drawer10.Readings.Monitoring
/TILE/DCS/HV	EBC11	139	ATLTILLV03:Drawer11.Readings.Monitoring
/TILE/DCS/HV	EBC12	140	ATLTILLV03:Drawer12.Readings.Monitoring
/TILE/DCS/HV	EBC13	141	ATLTILLV03:Drawer13.Readings.Monitoring
/TILE/DCS/HV	EBC14	142	ATLTILLV03:Drawer14.Readings.Monitoring
/TILE/DCS/HV	EBC15	143	ATLTILLV03:Drawer15.Readings.Monitoring
/TILE/DCS/HV	EBC16	144	ATLTILLV03:Drawer16.Readings.Monitoring
/TILE/DCS/HV	EBC17	145	ATLTILLV03:Drawer17.Readings.Monitoring
/TILE/DCS/HV	EBC18	146	ATLTILLV03:Drawer18.Readings.Monitoring
/TILE/DCS/HV	EBC19	147	ATLTILLV03:Drawer19.Readings.Monitoring
/TILE/DCS/HV	EBC20	149	ATLTILLV03:Drawer20.Readings.Monitoring
/TILE/DCS/HV	EBC21	150	ATLTILLV03:Drawer21.Readings.Monitoring
/TILE/DCS/HV	EBC22	151	ATLTILLV03:Drawer22.Readings.Monitoring
/TILE/DCS/HV	EBC23	152	ATLTILLV03:Drawer23.Readings.Monitoring
/TILE/DCS/HV	EBC24	153	ATLTILLV03:Drawer24.Readings.Monitoring
/TILE/DCS/HV	EBC25	154	ATLTILLV03:Drawer25.Readings.Monitoring
/TILE/DCS/HV	EBC26	155	ATLTILLV03:Drawer26.Readings.Monitoring
/TILE/DCS/HV	EBC27	156	ATLTILLV03:Drawer27.Readings.Monitoring
/TILE/DCS/HV	EBC28	157	ATLTILLV03:Drawer28.Readings.Monitoring
/TILE/DCS/HV	EBC29	158	ATLTILLV03:Drawer29.Readings.Monitoring
/TILE/DCS/HV	EBC30	160	ATLTILLV03:Drawer30.Readings.Monitoring
/TILE/DCS/HV	EBC31	161	ATLTILLV03:Drawer31.Readings.Monitoring
/TILE/DCS/HV	EBC32	162	ATLTILLV03:Drawer32.Readings.Monitoring
/TILE/DCS/HV	EBC33	163	ATLTILLV03:Drawer33.Readings.Monitoring
/TILE/DCS/HV	EBC34	164	ATLTILLV03:Drawer34.Readings.Monitoring
/TILE/DCS/HV	EBC35	165	ATLTILLV03:Drawer35.Readings.Monitoring
/TILE/DCS/HV	EBC36	166	ATLTILLV03:Drawer36.Readings.Monitoring
/TILE/DCS/HV	EBC37	167	ATLTILLV03:Drawer37.Readings.Monitoring
/TILE/DCS/HV	EBC38	168	ATLTILLV03:Drawer38.Readings.Monitoring
/TILE/DCS/HV	EBC39	169	ATLTILLV03:Drawer39.Readings.Monitoring
/TILE/DCS/HV	EBC40	171	ATLTILLV03:Drawer40.Readings.Monitoring
/TILE/DCS/HV	EBC41	172	ATLTILLV03:Drawer41.Readings.Monitoring
/TILE/DCS/HV	EBC42	173	ATLTILLV03:Drawer42.Readings.Monitoring
/TILE/DCS/HV	EBC43	174	ATLTILLV03:Drawer43.Readings.Monitoring
/TILE/DCS/HV	EBC44	175	ATLTILLV03:Drawer44.Readings.Monitoring
/TILE/DCS/HV	EBC45	176	ATLTILLV03:Drawer45.Readings.Monitoring
/TILE/DCS/HV	EBC46	177	ATLTILLV03:Drawer46.Readings.Monitoring
/TILE/DCS/HV	EBC47	236	ATLTILLV03:Drawer47.Readings.Monitoring
/TILE/DCS/HV	EBC48	178	ATLTILLV03:Drawer48.Readings.Monitoring
/TILE/DCS/HV	EBC49	179	ATLTILLV03:Drawer49.Readings.Monitoring
/TILE/DCS/HV	EBC50	181	ATLTILLV03:Drawer50.Readings.Monitoring
/TILE/DCS/HV	EBC51	182	ATLTILLV03:Drawer51.Readings.Monitoring
/TILE/DCS/HV	EBC52	237	ATLTILLV03:Drawer52.Readings.Monitoring
/TILE/DCS/HV	EBC53	183	ATLTILLV03:Drawer53.Readings.Monitoring
/TILE/DCS/HV	EBC54	184	ATLTILLV03:Drawer54.Readings.Monitoring
/TILE/DCS/HV	EBC55	185	ATLTILLV03:Drawer55.Readings.Monitoring
/TILE/DCS/HV	EBC56	186	ATLTILLV03:Drawer56.Readings.Monitoring
/TILE/DCS/HV	EBC57	187	ATLTILLV03:Drawer57.Readings.Monitoring
/TILE/DCS/HV	EBC58	188	ATLTILLV03:Drawer58.Readings.Monitoring
/TILE/DCS/HV	EBC59	189	ATLTILLV03:Drawer59.Readings.Monitoring
/TILE/DCS/HV	EBC60	191	ATLTILLV03:Drawer60.Readings.Monitoring
/TILE/DCS/HV	EBC61	192	ATLTILLV03:Drawer61.Readings.Monitoring
/TILE/DCS/HV	EBC62	193	ATLTILLV03:Drawer62.Readings.Monitoring
/TILE/DCS/HV	EBC63	194	ATLTILLV03:Drawer63.Readings.Monitoring
/TILE/DCS/HV	EBC64	195	ATLTILLV03:Drawer64.Readings.Monitoring
/TILE/DCS/HV	LBA01	44 	ATLTILLV01:Drawer1.Readings.Monitoring
/TILE/DCS/HV	LBA02	53 	ATLTILLV01:Drawer2.Readings.Monitoring
/TILE/DCS/HV	LBA03	61 	ATLTILLV01:Drawer3.Readings.Monitoring
/TILE/DCS/HV	LBA04	70 	ATLTILLV01:Drawer4.Readings.Monitoring
/TILE/DCS/HV	LBA05	78 	ATLTILLV01:Drawer5.Readings.Monitoring
/TILE/DCS/HV	LBA06	215	ATLTILLV01:Drawer6.Readings.Monitoring
/TILE/DCS/HV	LBA07	217	ATLTILLV01:Drawer7.Readings.Monitoring
/TILE/DCS/HV	LBA08	90 	ATLTILLV01:Drawer8.Readings.Monitoring
/TILE/DCS/HV	LBA09	218	ATLTILLV01:Drawer9.Readings.Monitoring
/TILE/DCS/HV	LBA10	45 	ATLTILLV01:Drawer10.Readings.Monitoring
/TILE/DCS/HV	LBA11	46 	ATLTILLV01:Drawer11.Readings.Monitoring
/TILE/DCS/HV	LBA12	47 	ATLTILLV01:Drawer12.Readings.Monitoring
/TILE/DCS/HV	LBA13	48 	ATLTILLV01:Drawer13.Readings.Monitoring
/TILE/DCS/HV	LBA14	207	ATLTILLV01:Drawer14.Readings.Monitoring
/TILE/DCS/HV	LBA15	49 	ATLTILLV01:Drawer15.Readings.Monitoring
/TILE/DCS/HV	LBA16	208	ATLTILLV01:Drawer16.Readings.Monitoring
/TILE/DCS/HV	LBA17	50 	ATLTILLV01:Drawer17.Readings.Monitoring
/TILE/DCS/HV	LBA18	51 	ATLTILLV01:Drawer18.Readings.Monitoring
/TILE/DCS/HV	LBA19	52 	ATLTILLV01:Drawer19.Readings.Monitoring
/TILE/DCS/HV	LBA20	54 	ATLTILLV01:Drawer20.Readings.Monitoring
/TILE/DCS/HV	LBA21	55 	ATLTILLV01:Drawer21.Readings.Monitoring
/TILE/DCS/HV	LBA22	209	ATLTILLV01:Drawer22.Readings.Monitoring
/TILE/DCS/HV	LBA23	210	ATLTILLV01:Drawer23.Readings.Monitoring
/TILE/DCS/HV	LBA24	211	ATLTILLV01:Drawer24.Readings.Monitoring
/TILE/DCS/HV	LBA25	56 	ATLTILLV01:Drawer25.Readings.Monitoring
/TILE/DCS/HV	LBA26	57 	ATLTILLV01:Drawer26.Readings.Monitoring
/TILE/DCS/HV	LBA27	58 	ATLTILLV01:Drawer27.Readings.Monitoring
/TILE/DCS/HV	LBA28	59 	ATLTILLV01:Drawer28.Readings.Monitoring
/TILE/DCS/HV	LBA29	60 	ATLTILLV01:Drawer29.Readings.Monitoring
/TILE/DCS/HV	LBA30	62 	ATLTILLV01:Drawer30.Readings.Monitoring
/TILE/DCS/HV	LBA31	63 	ATLTILLV01:Drawer31.Readings.Monitoring
/TILE/DCS/HV	LBA32	64 	ATLTILLV01:Drawer32.Readings.Monitoring
/TILE/DCS/HV	LBA33	65 	ATLTILLV01:Drawer33.Readings.Monitoring
/TILE/DCS/HV	LBA34	66 	ATLTILLV01:Drawer34.Readings.Monitoring
/TILE/DCS/HV	LBA35	67 	ATLTILLV01:Drawer35.Readings.Monitoring
/TILE/DCS/HV	LBA36	68 	ATLTILLV01:Drawer36.Readings.Monitoring
/TILE/DCS/HV	LBA37	251	ATLTILLV01:Drawer37.Readings.Monitoring
/TILE/DCS/HV	LBA38	69 	ATLTILLV01:Drawer38.Readings.Monitoring
/TILE/DCS/HV	LBA39	252	ATLTILLV01:Drawer39.Readings.Monitoring
/TILE/DCS/HV	LBA40	253	ATLTILLV01:Drawer40.Readings.Monitoring
/TILE/DCS/HV	LBA41	71 	ATLTILLV01:Drawer41.Readings.Monitoring
/TILE/DCS/HV	LBA42	72 	ATLTILLV01:Drawer42.Readings.Monitoring
/TILE/DCS/HV	LBA43	73 	ATLTILLV01:Drawer43.Readings.Monitoring
/TILE/DCS/HV	LBA44	254	ATLTILLV01:Drawer44.Readings.Monitoring
/TILE/DCS/HV	LBA45	74 	ATLTILLV01:Drawer45.Readings.Monitoring
/TILE/DCS/HV	LBA46	75 	ATLTILLV01:Drawer46.Readings.Monitoring
/TILE/DCS/HV	LBA47	76 	ATLTILLV01:Drawer47.Readings.Monitoring
/TILE/DCS/HV	LBA48	212	ATLTILLV01:Drawer48.Readings.Monitoring
/TILE/DCS/HV	LBA49	77 	ATLTILLV01:Drawer49.Readings.Monitoring
/TILE/DCS/HV	LBA50	213	ATLTILLV01:Drawer50.Readings.Monitoring
/TILE/DCS/HV	LBA51	214	ATLTILLV01:Drawer51.Readings.Monitoring
/TILE/DCS/HV	LBA52	79 	ATLTILLV01:Drawer52.Readings.Monitoring
/TILE/DCS/HV	LBA53	80 	ATLTILLV01:Drawer53.Readings.Monitoring
/TILE/DCS/HV	LBA54	81 	ATLTILLV01:Drawer54.Readings.Monitoring
/TILE/DCS/HV	LBA55	82 	ATLTILLV01:Drawer55.Readings.Monitoring
/TILE/DCS/HV	LBA56	83 	ATLTILLV01:Drawer56.Readings.Monitoring
/TILE/DCS/HV	LBA57	255	ATLTILLV01:Drawer57.Readings.Monitoring
/TILE/DCS/HV	LBA58	84 	ATLTILLV01:Drawer58.Readings.Monitoring
/TILE/DCS/HV	LBA59	85 	ATLTILLV01:Drawer59.Readings.Monitoring
/TILE/DCS/HV	LBA60	86 	ATLTILLV01:Drawer60.Readings.Monitoring
/TILE/DCS/HV	LBA61	87 	ATLTILLV01:Drawer61.Readings.Monitoring
/TILE/DCS/HV	LBA62	88 	ATLTILLV01:Drawer62.Readings.Monitoring
/TILE/DCS/HV	LBA63	89 	ATLTILLV01:Drawer63.Readings.Monitoring
/TILE/DCS/HV	LBA64	216	ATLTILLV01:Drawer64.Readings.Monitoring
/TILE/DCS/HV	LBC01	91 	ATLTILLV02:Drawer1.Readings.Monitoring
/TILE/DCS/HV	LBC02	98 	ATLTILLV02:Drawer2.Readings.Monitoring
/TILE/DCS/HV	LBC03	105	ATLTILLV02:Drawer3.Readings.Monitoring
/TILE/DCS/HV	LBC04	113	ATLTILLV02:Drawer4.Readings.Monitoring
/TILE/DCS/HV	LBC05	122	ATLTILLV02:Drawer5.Readings.Monitoring
/TILE/DCS/HV	LBC06	131	ATLTILLV02:Drawer6.Readings.Monitoring
/TILE/DCS/HV	LBC07	135	ATLTILLV02:Drawer7.Readings.Monitoring
/TILE/DCS/HV	LBC08	235	ATLTILLV02:Drawer8.Readings.Monitoring
/TILE/DCS/HV	LBC09	136	ATLTILLV02:Drawer9.Readings.Monitoring
/TILE/DCS/HV	LBC10	92 	ATLTILLV02:Drawer10.Readings.Monitoring
/TILE/DCS/HV	LBC11	219	ATLTILLV02:Drawer11.Readings.Monitoring
/TILE/DCS/HV	LBC12	220	ATLTILLV02:Drawer12.Readings.Monitoring
/TILE/DCS/HV	LBC13	93 	ATLTILLV02:Drawer13.Readings.Monitoring
/TILE/DCS/HV	LBC14	94 	ATLTILLV02:Drawer14.Readings.Monitoring
/TILE/DCS/HV	LBC15	95 	ATLTILLV02:Drawer15.Readings.Monitoring
/TILE/DCS/HV	LBC16	96 	ATLTILLV02:Drawer16.Readings.Monitoring
/TILE/DCS/HV	LBC17	221	ATLTILLV02:Drawer17.Readings.Monitoring
/TILE/DCS/HV	LBC18	222	ATLTILLV02:Drawer18.Readings.Monitoring
/TILE/DCS/HV	LBC19	97 	ATLTILLV02:Drawer19.Readings.Monitoring
/TILE/DCS/HV	LBC20	99 	ATLTILLV02:Drawer20.Readings.Monitoring
/TILE/DCS/HV	LBC21	100	ATLTILLV02:Drawer21.Readings.Monitoring
/TILE/DCS/HV	LBC22	101	ATLTILLV02:Drawer22.Readings.Monitoring
/TILE/DCS/HV	LBC23	223	ATLTILLV02:Drawer23.Readings.Monitoring
/TILE/DCS/HV	LBC24	102	ATLTILLV02:Drawer24.Readings.Monitoring
/TILE/DCS/HV	LBC25	103	ATLTILLV02:Drawer25.Readings.Monitoring
/TILE/DCS/HV	LBC26	224	ATLTILLV02:Drawer26.Readings.Monitoring
/TILE/DCS/HV	LBC27	104	ATLTILLV02:Drawer27.Readings.Monitoring
/TILE/DCS/HV	LBC28	225	ATLTILLV02:Drawer28.Readings.Monitoring
/TILE/DCS/HV	LBC29	226	ATLTILLV02:Drawer29.Readings.Monitoring
/TILE/DCS/HV	LBC30	106	ATLTILLV02:Drawer30.Readings.Monitoring
/TILE/DCS/HV	LBC31	107	ATLTILLV02:Drawer31.Readings.Monitoring
/TILE/DCS/HV	LBC32	108	ATLTILLV02:Drawer32.Readings.Monitoring
/TILE/DCS/HV	LBC33	227	ATLTILLV02:Drawer33.Readings.Monitoring
/TILE/DCS/HV	LBC34	256	ATLTILLV02:Drawer34.Readings.Monitoring
/TILE/DCS/HV	LBC35	109	ATLTILLV02:Drawer35.Readings.Monitoring
/TILE/DCS/HV	LBC36	110	ATLTILLV02:Drawer36.Readings.Monitoring
/TILE/DCS/HV	LBC37	111	ATLTILLV02:Drawer37.Readings.Monitoring
/TILE/DCS/HV	LBC38	112	ATLTILLV02:Drawer38.Readings.Monitoring
/TILE/DCS/HV	LBC39	228	ATLTILLV02:Drawer39.Readings.Monitoring
/TILE/DCS/HV	LBC40	114	ATLTILLV02:Drawer40.Readings.Monitoring
/TILE/DCS/HV	LBC41	115	ATLTILLV02:Drawer41.Readings.Monitoring
/TILE/DCS/HV	LBC42	116	ATLTILLV02:Drawer42.Readings.Monitoring
/TILE/DCS/HV	LBC43	229	ATLTILLV02:Drawer43.Readings.Monitoring
/TILE/DCS/HV	LBC44	117	ATLTILLV02:Drawer44.Readings.Monitoring
/TILE/DCS/HV	LBC45	118	ATLTILLV02:Drawer45.Readings.Monitoring
/TILE/DCS/HV	LBC46	119	ATLTILLV02:Drawer46.Readings.Monitoring
/TILE/DCS/HV	LBC47	230	ATLTILLV02:Drawer47.Readings.Monitoring
/TILE/DCS/HV	LBC48	120	ATLTILLV02:Drawer48.Readings.Monitoring
/TILE/DCS/HV	LBC49	121	ATLTILLV02:Drawer49.Readings.Monitoring
/TILE/DCS/HV	LBC50	123	ATLTILLV02:Drawer50.Readings.Monitoring
/TILE/DCS/HV	LBC51	124	ATLTILLV02:Drawer51.Readings.Monitoring
/TILE/DCS/HV	LBC52	125	ATLTILLV02:Drawer52.Readings.Monitoring
/TILE/DCS/HV	LBC53	126	ATLTILLV02:Drawer53.Readings.Monitoring
/TILE/DCS/HV	LBC54	127	ATLTILLV02:Drawer54.Readings.Monitoring
/TILE/DCS/HV	LBC55	231	ATLTILLV02:Drawer55.Readings.Monitoring
/TILE/DCS/HV	LBC56	128	ATLTILLV02:Drawer56.Readings.Monitoring
/TILE/DCS/HV	LBC57	129	ATLTILLV02:Drawer57.Readings.Monitoring
/TILE/DCS/HV	LBC58	130	ATLTILLV02:Drawer58.Readings.Monitoring
/TILE/DCS/HV	LBC59	232	ATLTILLV02:Drawer59.Readings.Monitoring
/TILE/DCS/HV	LBC60	132	ATLTILLV02:Drawer60.Readings.Monitoring
/TILE/DCS/HV	LBC61	233	ATLTILLV02:Drawer61.Readings.Monitoring
/TILE/DCS/HV	LBC62	133	ATLTILLV02:Drawer62.Readings.Monitoring
/TILE/DCS/HV	LBC63	234	ATLTILLV02:Drawer63.Readings.Monitoring
/TILE/DCS/HV	LBC64	134	ATLTILLV02:Drawer64.Readings.Monitoring
/TILE/DCS/HVSET	EBA01	129	ATLTILLV00:Drawer1.Readings.Requests
/TILE/DCS/HVSET	EBA02	140	ATLTILLV00:Drawer2.Readings.Requests
/TILE/DCS/HVSET	EBA03	151	ATLTILLV00:Drawer3.Readings.Requests
/TILE/DCS/HVSET	EBA04	162	ATLTILLV00:Drawer4.Readings.Requests
/TILE/DCS/HVSET	EBA05	173	ATLTILLV00:Drawer5.Readings.Requests
/TILE/DCS/HVSET	EBA06	184	ATLTILLV00:Drawer6.Readings.Requests
/TILE/DCS/HVSET	EBA07	190	ATLTILLV00:Drawer7.Readings.Requests
/TILE/DCS/HVSET	EBA08	191	ATLTILLV00:Drawer8.Readings.Requests
/TILE/DCS/HVSET	EBA09	192	ATLTILLV00:Drawer9.Readings.Requests
/TILE/DCS/HVSET	EBA10	130	ATLTILLV00:Drawer10.Readings.Requests
/TILE/DCS/HVSET	EBA11	131	ATLTILLV00:Drawer11.Readings.Requests
/TILE/DCS/HVSET	EBA12	132	ATLTILLV00:Drawer12.Readings.Requests
/TILE/DCS/HVSET	EBA13	133	ATLTILLV00:Drawer13.Readings.Requests
/TILE/DCS/HVSET	EBA14	134	ATLTILLV00:Drawer14.Readings.Requests
/TILE/DCS/HVSET	EBA15	135	ATLTILLV00:Drawer15.Readings.Requests
/TILE/DCS/HVSET	EBA16	136	ATLTILLV00:Drawer16.Readings.Requests
/TILE/DCS/HVSET	EBA17	137	ATLTILLV00:Drawer17.Readings.Requests
/TILE/DCS/HVSET	EBA18	138	ATLTILLV00:Drawer18.Readings.Requests
/TILE/DCS/HVSET	EBA19	139	ATLTILLV00:Drawer19.Readings.Requests
/TILE/DCS/HVSET	EBA20	141	ATLTILLV00:Drawer20.Readings.Requests
/TILE/DCS/HVSET	EBA21	142	ATLTILLV00:Drawer21.Readings.Requests
/TILE/DCS/HVSET	EBA22	143	ATLTILLV00:Drawer22.Readings.Requests
/TILE/DCS/HVSET	EBA23	144	ATLTILLV00:Drawer23.Readings.Requests
/TILE/DCS/HVSET	EBA24	145	ATLTILLV00:Drawer24.Readings.Requests
/TILE/DCS/HVSET	EBA25	146	ATLTILLV00:Drawer25.Readings.Requests
/TILE/DCS/HVSET	EBA26	147	ATLTILLV00:Drawer26.Readings.Requests
/TILE/DCS/HVSET	EBA27	148	ATLTILLV00:Drawer27.Readings.Requests
/TILE/DCS/HVSET	EBA28	149	ATLTILLV00:Drawer28.Readings.Requests
/TILE/DCS/HVSET	EBA29	150	ATLTILLV00:Drawer29.Readings.Requests
/TILE/DCS/HVSET	EBA30	152	ATLTILLV00:Drawer30.Readings.Requests
/TILE/DCS/HVSET	EBA31	153	ATLTILLV00:Drawer31.Readings.Requests
/TILE/DCS/HVSET	EBA32	154	ATLTILLV00:Drawer32.Readings.Requests
/TILE/DCS/HVSET	EBA33	155	ATLTILLV00:Drawer33.Readings.Requests
/TILE/DCS/HVSET	EBA34	156	ATLTILLV00:Drawer34.Readings.Requests
/TILE/DCS/HVSET	EBA35	157	ATLTILLV00:Drawer35.Readings.Requests
/TILE/DCS/HVSET	EBA36	158	ATLTILLV00:Drawer36.Readings.Requests
/TILE/DCS/HVSET	EBA37	159	ATLTILLV00:Drawer37.Readings.Requests
/TILE/DCS/HVSET	EBA38	160	ATLTILLV00:Drawer38.Readings.Requests
/TILE/DCS/HVSET	EBA39	161	ATLTILLV00:Drawer39.Readings.Requests
/TILE/DCS/HVSET	EBA40	163	ATLTILLV00:Drawer40.Readings.Requests
/TILE/DCS/HVSET	EBA41	164	ATLTILLV00:Drawer41.Readings.Requests
/TILE/DCS/HVSET	EBA42	165	ATLTILLV00:Drawer42.Readings.Requests
/TILE/DCS/HVSET	EBA43	166	ATLTILLV00:Drawer43.Readings.Requests
/TILE/DCS/HVSET	EBA44	167	ATLTILLV00:Drawer44.Readings.Requests
/TILE/DCS/HVSET	EBA45	168	ATLTILLV00:Drawer45.Readings.Requests
/TILE/DCS/HVSET	EBA46	169	ATLTILLV00:Drawer46.Readings.Requests
/TILE/DCS/HVSET	EBA47	170	ATLTILLV00:Drawer47.Readings.Requests
/TILE/DCS/HVSET	EBA48	171	ATLTILLV00:Drawer48.Readings.Requests
/TILE/DCS/HVSET	EBA49	172	ATLTILLV00:Drawer49.Readings.Requests
/TILE/DCS/HVSET	EBA50	174	ATLTILLV00:Drawer50.Readings.Requests
/TILE/DCS/HVSET	EBA51	175	ATLTILLV00:Drawer51.Readings.Requests
/TILE/DCS/HVSET	EBA52	176	ATLTILLV00:Drawer52.Readings.Requests
/TILE/DCS/HVSET	EBA53	177	ATLTILLV00:Drawer53.Readings.Requests
/TILE/DCS/HVSET	EBA54	178	ATLTILLV00:Drawer54.Readings.Requests
/TILE/DCS/HVSET	EBA55	179	ATLTILLV00:Drawer55.Readings.Requests
/TILE/DCS/HVSET	EBA56	180	ATLTILLV00:Drawer56.Readings.Requests
/TILE/DCS/HVSET	EBA57	181	ATLTILLV00:Drawer57.Readings.Requests
/TILE/DCS/HVSET	EBA58	182	ATLTILLV00:Drawer58.Readings.Requests
/TILE/DCS/HVSET	EBA59	183	ATLTILLV00:Drawer59.Readings.Requests
/TILE/DCS/HVSET	EBA60	185	ATLTILLV00:Drawer60.Readings.Requests
/TILE/DCS/HVSET	EBA61	186	ATLTILLV00:Drawer61.Readings.Requests
/TILE/DCS/HVSET	EBA62	187	ATLTILLV00:Drawer62.Readings.Requests
/TILE/DCS/HVSET	EBA63	188	ATLTILLV00:Drawer63.Readings.Requests
/TILE/DCS/HVSET	EBA64	189	ATLTILLV00:Drawer64.Readings.Requests
/TILE/DCS/HVSET	EBC01	2  	ATLTILLV03:Drawer1.Readings.Requests
/TILE/DCS/HVSET	EBC02	13 	ATLTILLV03:Drawer2.Readings.Requests
/TILE/DCS/HVSET	EBC03	24 	ATLTILLV03:Drawer3.Readings.Requests
/TILE/DCS/HVSET	EBC04	35 	ATLTILLV03:Drawer4.Readings.Requests
/TILE/DCS/HVSET	EBC05	45 	ATLTILLV03:Drawer5.Readings.Requests
/TILE/DCS/HVSET	EBC06	56 	ATLTILLV03:Drawer6.Readings.Requests
/TILE/DCS/HVSET	EBC07	62 	ATLTILLV03:Drawer7.Readings.Requests
/TILE/DCS/HVSET	EBC08	63 	ATLTILLV03:Drawer8.Readings.Requests
/TILE/DCS/HVSET	EBC09	64 	ATLTILLV03:Drawer9.Readings.Requests
/TILE/DCS/HVSET	EBC10	3  	ATLTILLV03:Drawer10.Readings.Requests
/TILE/DCS/HVSET	EBC11	4  	ATLTILLV03:Drawer11.Readings.Requests
/TILE/DCS/HVSET	EBC12	5  	ATLTILLV03:Drawer12.Readings.Requests
/TILE/DCS/HVSET	EBC13	6  	ATLTILLV03:Drawer13.Readings.Requests
/TILE/DCS/HVSET	EBC14	7  	ATLTILLV03:Drawer14.Readings.Requests
/TILE/DCS/HVSET	EBC15	8  	ATLTILLV03:Drawer15.Readings.Requests
/TILE/DCS/HVSET	EBC16	9  	ATLTILLV03:Drawer16.Readings.Requests
/TILE/DCS/HVSET	EBC17	10 	ATLTILLV03:Drawer17.Readings.Requests
/TILE/DCS/HVSET	EBC18	11 	ATLTILLV03:Drawer18.Readings.Requests
/TILE/DCS/HVSET	EBC19	12 	ATLTILLV03:Drawer19.Readings.Requests
/TILE/DCS/HVSET	EBC20	14 	ATLTILLV03:Drawer20.Readings.Requests
/TILE/DCS/HVSET	EBC21	15 	ATLTILLV03:Drawer21.Readings.Requests
/TILE/DCS/HVSET	EBC22	16 	ATLTILLV03:Drawer22.Readings.Requests
/TILE/DCS/HVSET	EBC23	17 	ATLTILLV03:Drawer23.Readings.Requests
/TILE/DCS/HVSET	EBC24	18 	ATLTILLV03:Drawer24.Readings.Requests
/TILE/DCS/HVSET	EBC25	19 	ATLTILLV03:Drawer25.Readings.Requests
/TILE/DCS/HVSET	EBC26	20 	ATLTILLV03:Drawer26.Readings.Requests
/TILE/DCS/HVSET	EBC27	21 	ATLTILLV03:Drawer27.Readings.Requests
/TILE/DCS/HVSET	EBC28	22 	ATLTILLV03:Drawer28.Readings.Requests
/TILE/DCS/HVSET	EBC29	23 	ATLTILLV03:Drawer29.Readings.Requests
/TILE/DCS/HVSET	EBC30	25 	ATLTILLV03:Drawer30.Readings.Requests
/TILE/DCS/HVSET	EBC31	26 	ATLTILLV03:Drawer31.Readings.Requests
/TILE/DCS/HVSET	EBC32	27 	ATLTILLV03:Drawer32.Readings.Requests
/TILE/DCS/HVSET	EBC33	28 	ATLTILLV03:Drawer33.Readings.Requests
/TILE/DCS/HVSET	EBC34	29 	ATLTILLV03:Drawer34.Readings.Requests
/TILE/DCS/HVSET	EBC35	30 	ATLTILLV03:Drawer35.Readings.Requests
/TILE/DCS/HVSET	EBC36	31 	ATLTILLV03:Drawer36.Readings.Requests
/TILE/DCS/HVSET	EBC37	32 	ATLTILLV03:Drawer37.Readings.Requests
/TILE/DCS/HVSET	EBC38	33 	ATLTILLV03:Drawer38.Readings.Requests
/TILE/DCS/HVSET	EBC39	34 	ATLTILLV03:Drawer39.Readings.Requests
/TILE/DCS/HVSET	EBC40	36 	ATLTILLV03:Drawer40.Readings.Requests
/TILE/DCS/HVSET	EBC41	37 	ATLTILLV03:Drawer41.Readings.Requests
/TILE/DCS/HVSET	EBC42	1  	ATLTILLV03:Drawer42.Readings.Requests
/TILE/DCS/HVSET	EBC43	38 	ATLTILLV03:Drawer43.Readings.Requests
/TILE/DCS/HVSET	EBC44	39 	ATLTILLV03:Drawer44.Readings.Requests
/TILE/DCS/HVSET	EBC45	40 	ATLTILLV03:Drawer45.Readings.Requests
/TILE/DCS/HVSET	EBC46	41 	ATLTILLV03:Drawer46.Readings.Requests
/TILE/DCS/HVSET	EBC47	42 	ATLTILLV03:Drawer47.Readings.Requests
/TILE/DCS/HVSET	EBC48	43 	ATLTILLV03:Drawer48.Readings.Requests
/TILE/DCS/HVSET	EBC49	44 	ATLTILLV03:Drawer49.Readings.Requests
/TILE/DCS/HVSET	EBC50	46 	ATLTILLV03:Drawer50.Readings.Requests
/TILE/DCS/HVSET	EBC51	47 	ATLTILLV03:Drawer51.Readings.Requests
/TILE/DCS/HVSET	EBC52	48 	ATLTILLV03:Drawer52.Readings.Requests
/TILE/DCS/HVSET	EBC53	49 	ATLTILLV03:Drawer53.Readings.Requests
/TILE/DCS/HVSET	EBC54	50 	ATLTILLV03:Drawer54.Readings.Requests
/TILE/DCS/HVSET	EBC55	51 	ATLTILLV03:Drawer55.Readings.Requests
/TILE/DCS/HVSET	EBC56	52 	ATLTILLV03:Drawer56.Readings.Requests
/TILE/DCS/HVSET	EBC57	53 	ATLTILLV03:Drawer57.Readings.Requests
/TILE/DCS/HVSET	EBC58	54 	ATLTILLV03:Drawer58.Readings.Requests
/TILE/DCS/HVSET	EBC59	55 	ATLTILLV03:Drawer59.Readings.Requests
/TILE/DCS/HVSET	EBC60	57 	ATLTILLV03:Drawer60.Readings.Requests
/TILE/DCS/HVSET	EBC61	58 	ATLTILLV03:Drawer61.Readings.Requests
/TILE/DCS/HVSET	EBC62	59 	ATLTILLV03:Drawer62.Readings.Requests
/TILE/DCS/HVSET	EBC63	60 	ATLTILLV03:Drawer63.Readings.Requests
/TILE/DCS/HVSET	EBC64	61 	ATLTILLV03:Drawer64.Readings.Requests
/TILE/DCS/HVSET	LBA01	193	ATLTILLV01:Drawer1.Readings.Requests
/TILE/DCS/HVSET	LBA02	204	ATLTILLV01:Drawer2.Readings.Requests
/TILE/DCS/HVSET	LBA03	215	ATLTILLV01:Drawer3.Readings.Requests
/TILE/DCS/HVSET	LBA04	226	ATLTILLV01:Drawer4.Readings.Requests
/TILE/DCS/HVSET	LBA05	237	ATLTILLV01:Drawer5.Readings.Requests
/TILE/DCS/HVSET	LBA06	248	ATLTILLV01:Drawer6.Readings.Requests
/TILE/DCS/HVSET	LBA07	254	ATLTILLV01:Drawer7.Readings.Requests
/TILE/DCS/HVSET	LBA08	255	ATLTILLV01:Drawer8.Readings.Requests
/TILE/DCS/HVSET	LBA09	256	ATLTILLV01:Drawer9.Readings.Requests
/TILE/DCS/HVSET	LBA10	194	ATLTILLV01:Drawer10.Readings.Requests
/TILE/DCS/HVSET	LBA11	195	ATLTILLV01:Drawer11.Readings.Requests
/TILE/DCS/HVSET	LBA12	196	ATLTILLV01:Drawer12.Readings.Requests
/TILE/DCS/HVSET	LBA13	197	ATLTILLV01:Drawer13.Readings.Requests
/TILE/DCS/HVSET	LBA14	198	ATLTILLV01:Drawer14.Readings.Requests
/TILE/DCS/HVSET	LBA15	199	ATLTILLV01:Drawer15.Readings.Requests
/TILE/DCS/HVSET	LBA16	200	ATLTILLV01:Drawer16.Readings.Requests
/TILE/DCS/HVSET	LBA17	201	ATLTILLV01:Drawer17.Readings.Requests
/TILE/DCS/HVSET	LBA18	202	ATLTILLV01:Drawer18.Readings.Requests
/TILE/DCS/HVSET	LBA19	203	ATLTILLV01:Drawer19.Readings.Requests
/TILE/DCS/HVSET	LBA20	205	ATLTILLV01:Drawer20.Readings.Requests
/TILE/DCS/HVSET	LBA21	206	ATLTILLV01:Drawer21.Readings.Requests
/TILE/DCS/HVSET	LBA22	207	ATLTILLV01:Drawer22.Readings.Requests
/TILE/DCS/HVSET	LBA23	208	ATLTILLV01:Drawer23.Readings.Requests
/TILE/DCS/HVSET	LBA24	209	ATLTILLV01:Drawer24.Readings.Requests
/TILE/DCS/HVSET	LBA25	210	ATLTILLV01:Drawer25.Readings.Requests
/TILE/DCS/HVSET	LBA26	211	ATLTILLV01:Drawer26.Readings.Requests
/TILE/DCS/HVSET	LBA27	212	ATLTILLV01:Drawer27.Readings.Requests
/TILE/DCS/HVSET	LBA28	213	ATLTILLV01:Drawer28.Readings.Requests
/TILE/DCS/HVSET	LBA29	214	ATLTILLV01:Drawer29.Readings.Requests
/TILE/DCS/HVSET	LBA30	216	ATLTILLV01:Drawer30.Readings.Requests
/TILE/DCS/HVSET	LBA31	217	ATLTILLV01:Drawer31.Readings.Requests
/TILE/DCS/HVSET	LBA32	218	ATLTILLV01:Drawer32.Readings.Requests
/TILE/DCS/HVSET	LBA33	219	ATLTILLV01:Drawer33.Readings.Requests
/TILE/DCS/HVSET	LBA34	220	ATLTILLV01:Drawer34.Readings.Requests
/TILE/DCS/HVSET	LBA35	221	ATLTILLV01:Drawer35.Readings.Requests
/TILE/DCS/HVSET	LBA36	222	ATLTILLV01:Drawer36.Readings.Requests
/TILE/DCS/HVSET	LBA37	223	ATLTILLV01:Drawer37.Readings.Requests
/TILE/DCS/HVSET	LBA38	224	ATLTILLV01:Drawer38.Readings.Requests
/TILE/DCS/HVSET	LBA39	225	ATLTILLV01:Drawer39.Readings.Requests
/TILE/DCS/HVSET	LBA40	227	ATLTILLV01:Drawer40.Readings.Requests
/TILE/DCS/HVSET	LBA41	228	ATLTILLV01:Drawer41.Readings.Requests
/TILE/DCS/HVSET	LBA42	229	ATLTILLV01:Drawer42.Readings.Requests
/TILE/DCS/HVSET	LBA43	230	ATLTILLV01:Drawer43.Readings.Requests
/TILE/DCS/HVSET	LBA44	231	ATLTILLV01:Drawer44.Readings.Requests
/TILE/DCS/HVSET	LBA45	232	ATLTILLV01:Drawer45.Readings.Requests
/TILE/DCS/HVSET	LBA46	233	ATLTILLV01:Drawer46.Readings.Requests
/TILE/DCS/HVSET	LBA47	234	ATLTILLV01:Drawer47.Readings.Requests
/TILE/DCS/HVSET	LBA48	235	ATLTILLV01:Drawer48.Readings.Requests
/TILE/DCS/HVSET	LBA49	236	ATLTILLV01:Drawer49.Readings.Requests
/TILE/DCS/HVSET	LBA50	238	ATLTILLV01:Drawer50.Readings.Requests
/TILE/DCS/HVSET	LBA51	239	ATLTILLV01:Drawer51.Readings.Requests
/TILE/DCS/HVSET	LBA52	240	ATLTILLV01:Drawer52.Readings.Requests
/TILE/DCS/HVSET	LBA53	241	ATLTILLV01:Drawer53.Readings.Requests
/TILE/DCS/HVSET	LBA54	242	ATLTILLV01:Drawer54.Readings.Requests
/TILE/DCS/HVSET	LBA55	243	ATLTILLV01:Drawer55.Readings.Requests
/TILE/DCS/HVSET	LBA56	244	ATLTILLV01:Drawer56.Readings.Requests
/TILE/DCS/HVSET	LBA57	245	ATLTILLV01:Drawer57.Readings.Requests
/TILE/DCS/HVSET	LBA58	246	ATLTILLV01:Drawer58.Readings.Requests
/TILE/DCS/HVSET	LBA59	247	ATLTILLV01:Drawer59.Readings.Requests
/TILE/DCS/HVSET	LBA60	249	ATLTILLV01:Drawer60.Readings.Requests
/TILE/DCS/HVSET	LBA61	250	ATLTILLV01:Drawer61.Readings.Requests
/TILE/DCS/HVSET	LBA62	251	ATLTILLV01:Drawer62.Readings.Requests
/TILE/DCS/HVSET	LBA63	252	ATLTILLV01:Drawer63.Readings.Requests
/TILE/DCS/HVSET	LBA64	253	ATLTILLV01:Drawer64.Readings.Requests
/TILE/DCS/HVSET	LBC01	65 	ATLTILLV02:Drawer1.Readings.Requests
/TILE/DCS/HVSET	LBC02	76 	ATLTILLV02:Drawer2.Readings.Requests
/TILE/DCS/HVSET	LBC03	87 	ATLTILLV02:Drawer3.Readings.Requests
/TILE/DCS/HVSET	LBC04	98 	ATLTILLV02:Drawer4.Readings.Requests
/TILE/DCS/HVSET	LBC05	109	ATLTILLV02:Drawer5.Readings.Requests
/TILE/DCS/HVSET	LBC06	120	ATLTILLV02:Drawer6.Readings.Requests
/TILE/DCS/HVSET	LBC07	126	ATLTILLV02:Drawer7.Readings.Requests
/TILE/DCS/HVSET	LBC08	127	ATLTILLV02:Drawer8.Readings.Requests
/TILE/DCS/HVSET	LBC09	128	ATLTILLV02:Drawer9.Readings.Requests
/TILE/DCS/HVSET	LBC10	66 	ATLTILLV02:Drawer10.Readings.Requests
/TILE/DCS/HVSET	LBC11	67 	ATLTILLV02:Drawer11.Readings.Requests
/TILE/DCS/HVSET	LBC12	68 	ATLTILLV02:Drawer12.Readings.Requests
/TILE/DCS/HVSET	LBC13	69 	ATLTILLV02:Drawer13.Readings.Requests
/TILE/DCS/HVSET	LBC14	70 	ATLTILLV02:Drawer14.Readings.Requests
/TILE/DCS/HVSET	LBC15	71 	ATLTILLV02:Drawer15.Readings.Requests
/TILE/DCS/HVSET	LBC16	72 	ATLTILLV02:Drawer16.Readings.Requests
/TILE/DCS/HVSET	LBC17	73 	ATLTILLV02:Drawer17.Readings.Requests
/TILE/DCS/HVSET	LBC18	74 	ATLTILLV02:Drawer18.Readings.Requests
/TILE/DCS/HVSET	LBC19	75 	ATLTILLV02:Drawer19.Readings.Requests
/TILE/DCS/HVSET	LBC20	77 	ATLTILLV02:Drawer20.Readings.Requests
/TILE/DCS/HVSET	LBC21	78 	ATLTILLV02:Drawer21.Readings.Requests
/TILE/DCS/HVSET	LBC22	79 	ATLTILLV02:Drawer22.Readings.Requests
/TILE/DCS/HVSET	LBC23	80 	ATLTILLV02:Drawer23.Readings.Requests
/TILE/DCS/HVSET	LBC24	81 	ATLTILLV02:Drawer24.Readings.Requests
/TILE/DCS/HVSET	LBC25	82 	ATLTILLV02:Drawer25.Readings.Requests
/TILE/DCS/HVSET	LBC26	83 	ATLTILLV02:Drawer26.Readings.Requests
/TILE/DCS/HVSET	LBC27	84 	ATLTILLV02:Drawer27.Readings.Requests
/TILE/DCS/HVSET	LBC28	85 	ATLTILLV02:Drawer28.Readings.Requests
/TILE/DCS/HVSET	LBC29	86 	ATLTILLV02:Drawer29.Readings.Requests
/TILE/DCS/HVSET	LBC30	88 	ATLTILLV02:Drawer30.Readings.Requests
/TILE/DCS/HVSET	LBC31	89 	ATLTILLV02:Drawer31.Readings.Requests
/TILE/DCS/HVSET	LBC32	90 	ATLTILLV02:Drawer32.Readings.Requests
/TILE/DCS/HVSET	LBC33	91 	ATLTILLV02:Drawer33.Readings.Requests
/TILE/DCS/HVSET	LBC34	92 	ATLTILLV02:Drawer34.Readings.Requests
/TILE/DCS/HVSET	LBC35	93 	ATLTILLV02:Drawer35.Readings.Requests
/TILE/DCS/HVSET	LBC36	94 	ATLTILLV02:Drawer36.Readings.Requests
/TILE/DCS/HVSET	LBC37	95 	ATLTILLV02:Drawer37.Readings.Requests
/TILE/DCS/HVSET	LBC38	96 	ATLTILLV02:Drawer38.Readings.Requests
/TILE/DCS/HVSET	LBC39	97 	ATLTILLV02:Drawer39.Readings.Requests
/TILE/DCS/HVSET	LBC40	99 	ATLTILLV02:Drawer40.Readings.Requests
/TILE/DCS/HVSET	LBC41	100	ATLTILLV02:Drawer41.Readings.Requests
/TILE/DCS/HVSET	LBC42	101	ATLTILLV02:Drawer42.Readings.Requests
/TILE/DCS/HVSET	LBC43	102	ATLTILLV02:Drawer43.Readings.Requests
/TILE/DCS/HVSET	LBC44	103	ATLTILLV02:Drawer44.Readings.Requests
/TILE/DCS/HVSET	LBC45	104	ATLTILLV02:Drawer45.Readings.Requests
/TILE/DCS/HVSET	LBC46	105	ATLTILLV02:Drawer46.Readings.Requests
/TILE/DCS/HVSET	LBC47	106	ATLTILLV02:Drawer47.Readings.Requests
/TILE/DCS/HVSET	LBC48	107	ATLTILLV02:Drawer48.Readings.Requests
/TILE/DCS/HVSET	LBC49	108	ATLTILLV02:Drawer49.Readings.Requests
/TILE/DCS/HVSET	LBC50	110	ATLTILLV02:Drawer50.Readings.Requests
/TILE/DCS/HVSET	LBC51	111	ATLTILLV02:Drawer51.Readings.Requests
/TILE/DCS/HVSET	LBC52	112	ATLTILLV02:Drawer52.Readings.Requests
/TILE/DCS/HVSET	LBC53	113	ATLTILLV02:Drawer53.Readings.Requests
/TILE/DCS/HVSET	LBC54	114	ATLTILLV02:Drawer54.Readings.Requests
/TILE/DCS/HVSET	LBC55	115	ATLTILLV02:Drawer55.Readings.Requests
/TILE/DCS/HVSET	LBC56	116	ATLTILLV02:Drawer56.Readings.Requests
/TILE/DCS/HVSET	LBC57	117	ATLTILLV02:Drawer57.Readings.Requests
/TILE/DCS/HVSET	LBC58	118	ATLTILLV02:Drawer58.Readings.Requests
/TILE/DCS/HVSET	LBC59	119	ATLTILLV02:Drawer59.Readings.Requests
/TILE/DCS/HVSET	LBC60	121	ATLTILLV02:Drawer60.Readings.Requests
/TILE/DCS/HVSET	LBC61	122	ATLTILLV02:Drawer61.Readings.Requests
/TILE/DCS/HVSET	LBC62	123	ATLTILLV02:Drawer62.Readings.Requests
/TILE/DCS/HVSET	LBC63	124	ATLTILLV02:Drawer63.Readings.Requests
/TILE/DCS/HVSET	LBC64	125	ATLTILLV02:Drawer64.Readings.Requests
/TILE/DCS/STATES	EBA01	241	ATLTILLV00:ELMB/LVCAN4/LVPS_1/states
/TILE/DCS/STATES	EBA02	242	ATLTILLV00:ELMB/LVCAN4/LVPS_2/states
/TILE/DCS/STATES	EBA03	243	ATLTILLV00:ELMB/LVCAN4/LVPS_3/states
/TILE/DCS/STATES	EBA04	244	ATLTILLV00:ELMB/LVCAN4/LVPS_4/states
/TILE/DCS/STATES	EBA05	248	ATLTILLV00:ELMB/LVCAN4/LVPS_5/states
/TILE/DCS/STATES	EBA06	254	ATLTILLV00:ELMB/LVCAN4/LVPS_6/states
/TILE/DCS/STATES	EBA07	255	ATLTILLV00:ELMB/LVCAN4/LVPS_7/states
/TILE/DCS/STATES	EBA08	256	ATLTILLV00:ELMB/LVCAN4/LVPS_8/states
/TILE/DCS/STATES	EBA09	208	ATLTILLV00:ELMB/LVCAN1/LVPS_9/states
/TILE/DCS/STATES	EBA10	193	ATLTILLV00:ELMB/LVCAN1/LVPS_10/states
/TILE/DCS/STATES	EBA11	194	ATLTILLV00:ELMB/LVCAN1/LVPS_11/states
/TILE/DCS/STATES	EBA12	195	ATLTILLV00:ELMB/LVCAN1/LVPS_12/states
/TILE/DCS/STATES	EBA13	196	ATLTILLV00:ELMB/LVCAN1/LVPS_13/states
/TILE/DCS/STATES	EBA14	197	ATLTILLV00:ELMB/LVCAN1/LVPS_14/states
/TILE/DCS/STATES	EBA15	198	ATLTILLV00:ELMB/LVCAN1/LVPS_15/states
/TILE/DCS/STATES	EBA16	199	ATLTILLV00:ELMB/LVCAN1/LVPS_16/states
/TILE/DCS/STATES	EBA17	200	ATLTILLV00:ELMB/LVCAN1/LVPS_17/states
/TILE/DCS/STATES	EBA18	201	ATLTILLV00:ELMB/LVCAN1/LVPS_18/states
/TILE/DCS/STATES	EBA19	202	ATLTILLV00:ELMB/LVCAN1/LVPS_19/states
/TILE/DCS/STATES	EBA20	203	ATLTILLV00:ELMB/LVCAN1/LVPS_20/states
/TILE/DCS/STATES	EBA21	204	ATLTILLV00:ELMB/LVCAN1/LVPS_21/states
/TILE/DCS/STATES	EBA22	205	ATLTILLV00:ELMB/LVCAN1/LVPS_22/states
/TILE/DCS/STATES	EBA23	206	ATLTILLV00:ELMB/LVCAN1/LVPS_23/states
/TILE/DCS/STATES	EBA24	207	ATLTILLV00:ELMB/LVCAN1/LVPS_24/states
/TILE/DCS/STATES	EBA25	209	ATLTILLV00:ELMB/LVCAN2/LVPS_25/states
/TILE/DCS/STATES	EBA26	210	ATLTILLV00:ELMB/LVCAN2/LVPS_26/states
/TILE/DCS/STATES	EBA27	211	ATLTILLV00:ELMB/LVCAN2/LVPS_27/states
/TILE/DCS/STATES	EBA28	212	ATLTILLV00:ELMB/LVCAN2/LVPS_28/states
/TILE/DCS/STATES	EBA29	213	ATLTILLV00:ELMB/LVCAN2/LVPS_29/states
/TILE/DCS/STATES	EBA30	214	ATLTILLV00:ELMB/LVCAN2/LVPS_30/states
/TILE/DCS/STATES	EBA31	215	ATLTILLV00:ELMB/LVCAN2/LVPS_31/states
/TILE/DCS/STATES	EBA32	216	ATLTILLV00:ELMB/LVCAN2/LVPS_32/states
/TILE/DCS/STATES	EBA33	217	ATLTILLV00:ELMB/LVCAN2/LVPS_33/states
/TILE/DCS/STATES	EBA34	218	ATLTILLV00:ELMB/LVCAN2/LVPS_34/states
/TILE/DCS/STATES	EBA35	219	ATLTILLV00:ELMB/LVCAN2/LVPS_35/states
/TILE/DCS/STATES	EBA36	220	ATLTILLV00:ELMB/LVCAN2/LVPS_36/states
/TILE/DCS/STATES	EBA37	221	ATLTILLV00:ELMB/LVCAN2/LVPS_37/states
/TILE/DCS/STATES	EBA38	222	ATLTILLV00:ELMB/LVCAN2/LVPS_38/states
/TILE/DCS/STATES	EBA39	223	ATLTILLV00:ELMB/LVCAN2/LVPS_39/states
/TILE/DCS/STATES	EBA40	224	ATLTILLV00:ELMB/LVCAN2/LVPS_40/states
/TILE/DCS/STATES	EBA41	225	ATLTILLV00:ELMB/LVCAN3/LVPS_41/states
/TILE/DCS/STATES	EBA42	226	ATLTILLV00:ELMB/LVCAN3/LVPS_42/states
/TILE/DCS/STATES	EBA43	227	ATLTILLV00:ELMB/LVCAN3/LVPS_43/states
/TILE/DCS/STATES	EBA44	228	ATLTILLV00:ELMB/LVCAN3/LVPS_44/states
/TILE/DCS/STATES	EBA45	229	ATLTILLV00:ELMB/LVCAN3/LVPS_45/states
/TILE/DCS/STATES	EBA46	230	ATLTILLV00:ELMB/LVCAN3/LVPS_46/states
/TILE/DCS/STATES	EBA47	231	ATLTILLV00:ELMB/LVCAN3/LVPS_47/states
/TILE/DCS/STATES	EBA48	232	ATLTILLV00:ELMB/LVCAN3/LVPS_48/states
/TILE/DCS/STATES	EBA49	233	ATLTILLV00:ELMB/LVCAN3/LVPS_49/states
/TILE/DCS/STATES	EBA50	234	ATLTILLV00:ELMB/LVCAN3/LVPS_50/states
/TILE/DCS/STATES	EBA51	235	ATLTILLV00:ELMB/LVCAN3/LVPS_51/states
/TILE/DCS/STATES	EBA52	236	ATLTILLV00:ELMB/LVCAN3/LVPS_52/states
/TILE/DCS/STATES	EBA53	237	ATLTILLV00:ELMB/LVCAN3/LVPS_53/states
/TILE/DCS/STATES	EBA54	238	ATLTILLV00:ELMB/LVCAN3/LVPS_54/states
/TILE/DCS/STATES	EBA55	239	ATLTILLV00:ELMB/LVCAN3/LVPS_55/states
/TILE/DCS/STATES	EBA56	240	ATLTILLV00:ELMB/LVCAN3/LVPS_56/states
/TILE/DCS/STATES	EBA57	245	ATLTILLV00:ELMB/LVCAN4/LVPS_57/states
/TILE/DCS/STATES	EBA58	246	ATLTILLV00:ELMB/LVCAN4/LVPS_58/states
/TILE/DCS/STATES	EBA59	247	ATLTILLV00:ELMB/LVCAN4/LVPS_59/states
/TILE/DCS/STATES	EBA60	249	ATLTILLV00:ELMB/LVCAN4/LVPS_60/states
/TILE/DCS/STATES	EBA61	250	ATLTILLV00:ELMB/LVCAN4/LVPS_61/states
/TILE/DCS/STATES	EBA62	251	ATLTILLV00:ELMB/LVCAN4/LVPS_62/states
/TILE/DCS/STATES	EBA63	252	ATLTILLV00:ELMB/LVCAN4/LVPS_63/states
/TILE/DCS/STATES	EBA64	253	ATLTILLV00:ELMB/LVCAN4/LVPS_64/states
/TILE/DCS/STATES	EBC01	177	ATLTILLV03:ELMB/LVCAN4/LVPS_1/states
/TILE/DCS/STATES	EBC02	178	ATLTILLV03:ELMB/LVCAN4/LVPS_2/states
/TILE/DCS/STATES	EBC03	179	ATLTILLV03:ELMB/LVCAN4/LVPS_3/states
/TILE/DCS/STATES	EBC04	180	ATLTILLV03:ELMB/LVCAN4/LVPS_4/states
/TILE/DCS/STATES	EBC05	184	ATLTILLV03:ELMB/LVCAN4/LVPS_5/states
/TILE/DCS/STATES	EBC06	190	ATLTILLV03:ELMB/LVCAN4/LVPS_6/states
/TILE/DCS/STATES	EBC07	191	ATLTILLV03:ELMB/LVCAN4/LVPS_7/states
/TILE/DCS/STATES	EBC08	192	ATLTILLV03:ELMB/LVCAN4/LVPS_8/states
/TILE/DCS/STATES	EBC09	145	ATLTILLV03:ELMB/LVCAN1/LVPS_9/states
/TILE/DCS/STATES	EBC10	131	ATLTILLV03:ELMB/LVCAN1/LVPS_10/states
/TILE/DCS/STATES	EBC11	132	ATLTILLV03:ELMB/LVCAN1/LVPS_11/states
/TILE/DCS/STATES	EBC12	133	ATLTILLV03:ELMB/LVCAN1/LVPS_12/states
/TILE/DCS/STATES	EBC13	64	ATLTILLV03:ELMB/LVCAN1/LVPS_13/states
/TILE/DCS/STATES	EBC14	134	ATLTILLV03:ELMB/LVCAN1/LVPS_14/states
/TILE/DCS/STATES	EBC15	135	ATLTILLV03:ELMB/LVCAN1/LVPS_15/states
/TILE/DCS/STATES	EBC16	136	ATLTILLV03:ELMB/LVCAN1/LVPS_16/states
/TILE/DCS/STATES	EBC17	137	ATLTILLV03:ELMB/LVCAN1/LVPS_17/states
/TILE/DCS/STATES	EBC18	138	ATLTILLV03:ELMB/LVCAN1/LVPS_18/states
/TILE/DCS/STATES	EBC19	139	ATLTILLV03:ELMB/LVCAN1/LVPS_19/states
/TILE/DCS/STATES	EBC20	140	ATLTILLV03:ELMB/LVCAN1/LVPS_20/states
/TILE/DCS/STATES	EBC21	141	ATLTILLV03:ELMB/LVCAN1/LVPS_21/states
/TILE/DCS/STATES	EBC22	142	ATLTILLV03:ELMB/LVCAN1/LVPS_22/states
/TILE/DCS/STATES	EBC23	143	ATLTILLV03:ELMB/LVCAN1/LVPS_23/states
/TILE/DCS/STATES	EBC24	144	ATLTILLV03:ELMB/LVCAN1/LVPS_24/states
/TILE/DCS/STATES	EBC25	146	ATLTILLV03:ELMB/LVCAN2/LVPS_25/states
/TILE/DCS/STATES	EBC26	147	ATLTILLV03:ELMB/LVCAN2/LVPS_26/states
/TILE/DCS/STATES	EBC27	148	ATLTILLV03:ELMB/LVCAN2/LVPS_27/states
/TILE/DCS/STATES	EBC28	149	ATLTILLV03:ELMB/LVCAN2/LVPS_28/states
/TILE/DCS/STATES	EBC29	150	ATLTILLV03:ELMB/LVCAN2/LVPS_29/states
/TILE/DCS/STATES	EBC30	151	ATLTILLV03:ELMB/LVCAN2/LVPS_30/states
/TILE/DCS/STATES	EBC31	152	ATLTILLV03:ELMB/LVCAN2/LVPS_31/states
/TILE/DCS/STATES	EBC32	153	ATLTILLV03:ELMB/LVCAN2/LVPS_32/states
/TILE/DCS/STATES	EBC33	154	ATLTILLV03:ELMB/LVCAN2/LVPS_33/states
/TILE/DCS/STATES	EBC34	155	ATLTILLV03:ELMB/LVCAN2/LVPS_34/states
/TILE/DCS/STATES	EBC35	156	ATLTILLV03:ELMB/LVCAN2/LVPS_35/states
/TILE/DCS/STATES	EBC36	157	ATLTILLV03:ELMB/LVCAN2/LVPS_36/states
/TILE/DCS/STATES	EBC37	158	ATLTILLV03:ELMB/LVCAN2/LVPS_37/states
/TILE/DCS/STATES	EBC38	159	ATLTILLV03:ELMB/LVCAN2/LVPS_38/states
/TILE/DCS/STATES	EBC39	160	ATLTILLV03:ELMB/LVCAN2/LVPS_39/states
/TILE/DCS/STATES	EBC40	161	ATLTILLV03:ELMB/LVCAN2/LVPS_40/states
/TILE/DCS/STATES	EBC41	162	ATLTILLV03:ELMB/LVCAN3/LVPS_41/states
/TILE/DCS/STATES	EBC42	130	ATLTILLV03:ELMB/LVCAN3/LVPS_42/states
/TILE/DCS/STATES	EBC43	163	ATLTILLV03:ELMB/LVCAN3/LVPS_43/states
/TILE/DCS/STATES	EBC44	164	ATLTILLV03:ELMB/LVCAN3/LVPS_44/states
/TILE/DCS/STATES	EBC45	165	ATLTILLV03:ELMB/LVCAN3/LVPS_45/states
/TILE/DCS/STATES	EBC46	166	ATLTILLV03:ELMB/LVCAN3/LVPS_46/states
/TILE/DCS/STATES	EBC47	167	ATLTILLV03:ELMB/LVCAN3/LVPS_47/states
/TILE/DCS/STATES	EBC48	168	ATLTILLV03:ELMB/LVCAN3/LVPS_48/states
/TILE/DCS/STATES	EBC49	169	ATLTILLV03:ELMB/LVCAN3/LVPS_49/states
/TILE/DCS/STATES	EBC50	170	ATLTILLV03:ELMB/LVCAN3/LVPS_50/states
/TILE/DCS/STATES	EBC51	171	ATLTILLV03:ELMB/LVCAN3/LVPS_51/states
/TILE/DCS/STATES	EBC52	172	ATLTILLV03:ELMB/LVCAN3/LVPS_52/states
/TILE/DCS/STATES	EBC53	173	ATLTILLV03:ELMB/LVCAN3/LVPS_53/states
/TILE/DCS/STATES	EBC54	174	ATLTILLV03:ELMB/LVCAN3/LVPS_54/states
/TILE/DCS/STATES	EBC55	175	ATLTILLV03:ELMB/LVCAN3/LVPS_55/states
/TILE/DCS/STATES	EBC56	176	ATLTILLV03:ELMB/LVCAN3/LVPS_56/states
/TILE/DCS/STATES	EBC57	181	ATLTILLV03:ELMB/LVCAN4/LVPS_57/states
/TILE/DCS/STATES	EBC58	182	ATLTILLV03:ELMB/LVCAN4/LVPS_58/states
/TILE/DCS/STATES	EBC59	183	ATLTILLV03:ELMB/LVCAN4/LVPS_59/states
/TILE/DCS/STATES	EBC60	185	ATLTILLV03:ELMB/LVCAN4/LVPS_60/states
/TILE/DCS/STATES	EBC61	186	ATLTILLV03:ELMB/LVCAN4/LVPS_61/states
/TILE/DCS/STATES	EBC62	187	ATLTILLV03:ELMB/LVCAN4/LVPS_62/states
/TILE/DCS/STATES	EBC63	188	ATLTILLV03:ELMB/LVCAN4/LVPS_63/states
/TILE/DCS/STATES	EBC64	189	ATLTILLV03:ELMB/LVCAN4/LVPS_64/states
/TILE/DCS/STATES	LBA01	49	ATLTILLV01:ELMB/LVCAN4/LVPS_1/states
/TILE/DCS/STATES	LBA02	50	ATLTILLV01:ELMB/LVCAN4/LVPS_2/states
/TILE/DCS/STATES	LBA03	51	ATLTILLV01:ELMB/LVCAN4/LVPS_3/states
/TILE/DCS/STATES	LBA04	65	ATLTILLV01:ELMB/LVCAN4/LVPS_4/states
/TILE/DCS/STATES	LBA05	55	ATLTILLV01:ELMB/LVCAN4/LVPS_5/states
/TILE/DCS/STATES	LBA06	61	ATLTILLV01:ELMB/LVCAN4/LVPS_6/states
/TILE/DCS/STATES	LBA07	62	ATLTILLV01:ELMB/LVCAN4/LVPS_7/states
/TILE/DCS/STATES	LBA08	63	ATLTILLV01:ELMB/LVCAN4/LVPS_8/states
/TILE/DCS/STATES	LBA09	16	ATLTILLV01:ELMB/LVCAN1/LVPS_9/states
/TILE/DCS/STATES	LBA10	1 	ATLTILLV01:ELMB/LVCAN1/LVPS_10/states
/TILE/DCS/STATES	LBA11	2 	ATLTILLV01:ELMB/LVCAN1/LVPS_11/states
/TILE/DCS/STATES	LBA12	3 	ATLTILLV01:ELMB/LVCAN1/LVPS_12/states
/TILE/DCS/STATES	LBA13	4 	ATLTILLV01:ELMB/LVCAN1/LVPS_13/states
/TILE/DCS/STATES	LBA14	5 	ATLTILLV01:ELMB/LVCAN1/LVPS_14/states
/TILE/DCS/STATES	LBA15	6 	ATLTILLV01:ELMB/LVCAN1/LVPS_15/states
/TILE/DCS/STATES	LBA16	7 	ATLTILLV01:ELMB/LVCAN1/LVPS_16/states
/TILE/DCS/STATES	LBA17	8 	ATLTILLV01:ELMB/LVCAN1/LVPS_17/states
/TILE/DCS/STATES	LBA18	9 	ATLTILLV01:ELMB/LVCAN1/LVPS_18/states
/TILE/DCS/STATES	LBA19	10	ATLTILLV01:ELMB/LVCAN1/LVPS_19/states
/TILE/DCS/STATES	LBA20	11	ATLTILLV01:ELMB/LVCAN1/LVPS_20/states
/TILE/DCS/STATES	LBA21	12	ATLTILLV01:ELMB/LVCAN1/LVPS_21/states
/TILE/DCS/STATES	LBA22	13	ATLTILLV01:ELMB/LVCAN1/LVPS_22/states
/TILE/DCS/STATES	LBA23	14	ATLTILLV01:ELMB/LVCAN1/LVPS_23/states
/TILE/DCS/STATES	LBA24	15	ATLTILLV01:ELMB/LVCAN1/LVPS_24/states
/TILE/DCS/STATES	LBA25	17	ATLTILLV01:ELMB/LVCAN2/LVPS_25/states
/TILE/DCS/STATES	LBA26	18	ATLTILLV01:ELMB/LVCAN2/LVPS_26/states
/TILE/DCS/STATES	LBA27	19	ATLTILLV01:ELMB/LVCAN2/LVPS_27/states
/TILE/DCS/STATES	LBA28	20	ATLTILLV01:ELMB/LVCAN2/LVPS_28/states
/TILE/DCS/STATES	LBA29	21	ATLTILLV01:ELMB/LVCAN2/LVPS_29/states
/TILE/DCS/STATES	LBA30	22	ATLTILLV01:ELMB/LVCAN2/LVPS_30/states
/TILE/DCS/STATES	LBA31	23	ATLTILLV01:ELMB/LVCAN2/LVPS_31/states
/TILE/DCS/STATES	LBA32	24	ATLTILLV01:ELMB/LVCAN2/LVPS_32/states
/TILE/DCS/STATES	LBA33	25	ATLTILLV01:ELMB/LVCAN2/LVPS_33/states
/TILE/DCS/STATES	LBA34	26	ATLTILLV01:ELMB/LVCAN2/LVPS_34/states
/TILE/DCS/STATES	LBA35	27	ATLTILLV01:ELMB/LVCAN2/LVPS_35/states
/TILE/DCS/STATES	LBA36	28	ATLTILLV01:ELMB/LVCAN2/LVPS_36/states
/TILE/DCS/STATES	LBA37	29	ATLTILLV01:ELMB/LVCAN2/LVPS_37/states
/TILE/DCS/STATES	LBA38	30	ATLTILLV01:ELMB/LVCAN2/LVPS_38/states
/TILE/DCS/STATES	LBA39	31	ATLTILLV01:ELMB/LVCAN2/LVPS_39/states
/TILE/DCS/STATES	LBA40	32	ATLTILLV01:ELMB/LVCAN2/LVPS_40/states
/TILE/DCS/STATES	LBA41	33	ATLTILLV01:ELMB/LVCAN3/LVPS_41/states
/TILE/DCS/STATES	LBA42	34	ATLTILLV01:ELMB/LVCAN3/LVPS_42/states
/TILE/DCS/STATES	LBA43	35	ATLTILLV01:ELMB/LVCAN3/LVPS_43/states
/TILE/DCS/STATES	LBA44	36	ATLTILLV01:ELMB/LVCAN3/LVPS_44/states
/TILE/DCS/STATES	LBA45	37	ATLTILLV01:ELMB/LVCAN3/LVPS_45/states
/TILE/DCS/STATES	LBA46	38	ATLTILLV01:ELMB/LVCAN3/LVPS_46/states
/TILE/DCS/STATES	LBA47	39	ATLTILLV01:ELMB/LVCAN3/LVPS_47/states
/TILE/DCS/STATES	LBA48	40	ATLTILLV01:ELMB/LVCAN3/LVPS_48/states
/TILE/DCS/STATES	LBA49	41	ATLTILLV01:ELMB/LVCAN3/LVPS_49/states
/TILE/DCS/STATES	LBA50	42	ATLTILLV01:ELMB/LVCAN3/LVPS_50/states
/TILE/DCS/STATES	LBA51	43	ATLTILLV01:ELMB/LVCAN3/LVPS_51/states
/TILE/DCS/STATES	LBA52	44	ATLTILLV01:ELMB/LVCAN3/LVPS_52/states
/TILE/DCS/STATES	LBA53	45	ATLTILLV01:ELMB/LVCAN3/LVPS_53/states
/TILE/DCS/STATES	LBA54	46	ATLTILLV01:ELMB/LVCAN3/LVPS_54/states
/TILE/DCS/STATES	LBA55	47	ATLTILLV01:ELMB/LVCAN3/LVPS_55/states
/TILE/DCS/STATES	LBA56	48	ATLTILLV01:ELMB/LVCAN3/LVPS_56/states
/TILE/DCS/STATES	LBA57	52	ATLTILLV01:ELMB/LVCAN4/LVPS_57/states
/TILE/DCS/STATES	LBA58	53	ATLTILLV01:ELMB/LVCAN4/LVPS_58/states
/TILE/DCS/STATES	LBA59	54	ATLTILLV01:ELMB/LVCAN4/LVPS_59/states
/TILE/DCS/STATES	LBA60	56	ATLTILLV01:ELMB/LVCAN4/LVPS_60/states
/TILE/DCS/STATES	LBA61	57	ATLTILLV01:ELMB/LVCAN4/LVPS_61/states
/TILE/DCS/STATES	LBA62	58	ATLTILLV01:ELMB/LVCAN4/LVPS_62/states
/TILE/DCS/STATES	LBA63	59	ATLTILLV01:ELMB/LVCAN4/LVPS_63/states
/TILE/DCS/STATES	LBA64	60	ATLTILLV01:ELMB/LVCAN4/LVPS_64/states
/TILE/DCS/STATES	LBC01	114	ATLTILLV02:ELMB/LVCAN4/LVPS_1/states
/TILE/DCS/STATES	LBC02	115	ATLTILLV02:ELMB/LVCAN4/LVPS_2/states
/TILE/DCS/STATES	LBC03	116	ATLTILLV02:ELMB/LVCAN4/LVPS_3/states
/TILE/DCS/STATES	LBC04	117	ATLTILLV02:ELMB/LVCAN4/LVPS_4/states
/TILE/DCS/STATES	LBC05	121	ATLTILLV02:ELMB/LVCAN4/LVPS_5/states
/TILE/DCS/STATES	LBC06	127	ATLTILLV02:ELMB/LVCAN4/LVPS_6/states
/TILE/DCS/STATES	LBC07	128	ATLTILLV02:ELMB/LVCAN4/LVPS_7/states
/TILE/DCS/STATES	LBC08	129	ATLTILLV02:ELMB/LVCAN4/LVPS_8/states
/TILE/DCS/STATES	LBC09	81	ATLTILLV02:ELMB/LVCAN1/LVPS_9/states
/TILE/DCS/STATES	LBC10	66	ATLTILLV02:ELMB/LVCAN1/LVPS_10/states
/TILE/DCS/STATES	LBC11	67	ATLTILLV02:ELMB/LVCAN1/LVPS_11/states
/TILE/DCS/STATES	LBC12	68	ATLTILLV02:ELMB/LVCAN1/LVPS_12/states
/TILE/DCS/STATES	LBC13	69	ATLTILLV02:ELMB/LVCAN1/LVPS_13/states
/TILE/DCS/STATES	LBC14	70	ATLTILLV02:ELMB/LVCAN1/LVPS_14/states
/TILE/DCS/STATES	LBC15	71	ATLTILLV02:ELMB/LVCAN1/LVPS_15/states
/TILE/DCS/STATES	LBC16	72	ATLTILLV02:ELMB/LVCAN1/LVPS_16/states
/TILE/DCS/STATES	LBC17	73	ATLTILLV02:ELMB/LVCAN1/LVPS_17/states
/TILE/DCS/STATES	LBC18	74	ATLTILLV02:ELMB/LVCAN1/LVPS_18/states
/TILE/DCS/STATES	LBC19	75	ATLTILLV02:ELMB/LVCAN1/LVPS_19/states
/TILE/DCS/STATES	LBC20	76	ATLTILLV02:ELMB/LVCAN1/LVPS_20/states
/TILE/DCS/STATES	LBC21	77	ATLTILLV02:ELMB/LVCAN1/LVPS_21/states
/TILE/DCS/STATES	LBC22	78	ATLTILLV02:ELMB/LVCAN1/LVPS_22/states
/TILE/DCS/STATES	LBC23	79	ATLTILLV02:ELMB/LVCAN1/LVPS_23/states
/TILE/DCS/STATES	LBC24	80	ATLTILLV02:ELMB/LVCAN1/LVPS_24/states
/TILE/DCS/STATES	LBC25	82	ATLTILLV02:ELMB/LVCAN2/LVPS_25/states
/TILE/DCS/STATES	LBC26	83	ATLTILLV02:ELMB/LVCAN2/LVPS_26/states
/TILE/DCS/STATES	LBC27	84	ATLTILLV02:ELMB/LVCAN2/LVPS_27/states
/TILE/DCS/STATES	LBC28	85	ATLTILLV02:ELMB/LVCAN2/LVPS_28/states
/TILE/DCS/STATES	LBC29	86	ATLTILLV02:ELMB/LVCAN2/LVPS_29/states
/TILE/DCS/STATES	LBC30	87	ATLTILLV02:ELMB/LVCAN2/LVPS_30/states
/TILE/DCS/STATES	LBC31	88	ATLTILLV02:ELMB/LVCAN2/LVPS_31/states
/TILE/DCS/STATES	LBC32	89	ATLTILLV02:ELMB/LVCAN2/LVPS_32/states
/TILE/DCS/STATES	LBC33	90	ATLTILLV02:ELMB/LVCAN2/LVPS_33/states
/TILE/DCS/STATES	LBC34	91	ATLTILLV02:ELMB/LVCAN2/LVPS_34/states
/TILE/DCS/STATES	LBC35	92	ATLTILLV02:ELMB/LVCAN2/LVPS_35/states
/TILE/DCS/STATES	LBC36	93	ATLTILLV02:ELMB/LVCAN2/LVPS_36/states
/TILE/DCS/STATES	LBC37	94	ATLTILLV02:ELMB/LVCAN2/LVPS_37/states
/TILE/DCS/STATES	LBC38	95	ATLTILLV02:ELMB/LVCAN2/LVPS_38/states
/TILE/DCS/STATES	LBC39	96	ATLTILLV02:ELMB/LVCAN2/LVPS_39/states
/TILE/DCS/STATES	LBC40	97	ATLTILLV02:ELMB/LVCAN2/LVPS_40/states
/TILE/DCS/STATES	LBC41	98	ATLTILLV02:ELMB/LVCAN3/LVPS_41/states
/TILE/DCS/STATES	LBC42	99	ATLTILLV02:ELMB/LVCAN3/LVPS_42/states
/TILE/DCS/STATES	LBC43	100	ATLTILLV02:ELMB/LVCAN3/LVPS_43/states
/TILE/DCS/STATES	LBC44	101	ATLTILLV02:ELMB/LVCAN3/LVPS_44/states
/TILE/DCS/STATES	LBC45	102	ATLTILLV02:ELMB/LVCAN3/LVPS_45/states
/TILE/DCS/STATES	LBC46	103	ATLTILLV02:ELMB/LVCAN3/LVPS_46/states
/TILE/DCS/STATES	LBC47	104	ATLTILLV02:ELMB/LVCAN3/LVPS_47/states
/TILE/DCS/STATES	LBC48	105	ATLTILLV02:ELMB/LVCAN3/LVPS_48/states
/TILE/DCS/STATES	LBC49	106	ATLTILLV02:ELMB/LVCAN3/LVPS_49/states
/TILE/DCS/STATES	LBC50	107	ATLTILLV02:ELMB/LVCAN3/LVPS_50/states
/TILE/DCS/STATES	LBC51	108	ATLTILLV02:ELMB/LVCAN3/LVPS_51/states
/TILE/DCS/STATES	LBC52	109	ATLTILLV02:ELMB/LVCAN3/LVPS_52/states
/TILE/DCS/STATES	LBC53	110	ATLTILLV02:ELMB/LVCAN3/LVPS_53/states
/TILE/DCS/STATES	LBC54	111	ATLTILLV02:ELMB/LVCAN3/LVPS_54/states
/TILE/DCS/STATES	LBC55	112	ATLTILLV02:ELMB/LVCAN3/LVPS_55/states
/TILE/DCS/STATES	LBC56	113	ATLTILLV02:ELMB/LVCAN3/LVPS_56/states
/TILE/DCS/STATES	LBC57	118	ATLTILLV02:ELMB/LVCAN4/LVPS_57/states
/TILE/DCS/STATES	LBC58	119	ATLTILLV02:ELMB/LVCAN4/LVPS_58/states
/TILE/DCS/STATES	LBC59	120	ATLTILLV02:ELMB/LVCAN4/LVPS_59/states
/TILE/DCS/STATES	LBC60	122	ATLTILLV02:ELMB/LVCAN4/LVPS_60/states
/TILE/DCS/STATES	LBC61	123	ATLTILLV02:ELMB/LVCAN4/LVPS_61/states
/TILE/DCS/STATES	LBC62	124	ATLTILLV02:ELMB/LVCAN4/LVPS_62/states
/TILE/DCS/STATES	LBC63	125	ATLTILLV02:ELMB/LVCAN4/LVPS_63/states
/TILE/DCS/STATES	LBC64	126	ATLTILLV02:ELMB/LVCAN4/LVPS_64/states
